31.65926828749911,5.739343972828927,9.544752542663952,0.8492112900902979,4.154121840403549,2.338793447045436,3.433488234297153,27.45105212511364,10.30754288966295,-17.5622421035057,-15.33827392251176,6.486823239992856,7.917772338537757,8.24885029322013,1.421578439025343,-1.536189293310585,-5.239120574290404,1.20400143097238,3.15283070394534,7.218597605862864,4.04407734614146
5.739343972828927,51.8417581922301,13.60090060621506,-1.1029366184424,-12.66684705549253,-3.745011487870713,2.624309397693245,10.06398520467916,3.244113427112955,-8.97792958495954,5.685205340431361,-2.273088982096359,7.079488930527889,6.70563692313961,1.80485853912468,-24.35463717105652,-25.29528590707246,-8.000978647388655,34.90115123344589,-1.667927311409526,7.497520149168184
9.54475254266395,13.60090060621506,39.49256538176706,2.12123664351989,4.949900690829644,-12.85765860946722,2.573334590196804,9.015855850925735,-5.299331082737013,-23.51650067925266,6.020830030799603,-2.681010800687912,12.15296451538824,-7.81776454103595,-5.486117941197452,-13.64814771329504,-18.67861040874247,-13.93749110879308,-13.55864764811055,2.570670726038564,6.597713437509509
0.8492112900902975,-1.102936618442399,2.121236643519892,27.06933996963558,10.82564047573536,5.437699876434546,-2.141889206089527,-13.31314542937402,-21.24087769767588,-8.78105236620859,4.503826091330611,-1.179096205011789,0.09155059084449381,-6.262565770307043,8.442652285311802,-6.521215259119594,-6.623354218338111,-9.726536573597897,3.075965411897311,1.090303807873833,1.241805985105831
4.154121840403549,-12.66684705549252,4.949900690829645,10.82564047573536,54.12522098591999,-3.258028440337795,-1.38069850324308,-1.321839772828459,-6.523228110531109,-2.71929124726055,4.774117791632673,11.14805802505397,-15.5295218341506,13.75645705716215,-1.707480217746294,5.607090924855841,-8.901107805846166,-3.450196593689601,-19.77505977176733,14.94583346950537,-10.23499095306803
2.338793447045439,-3.745011487870713,-12.85765860946722,5.437699876434546,-3.258028440337793,33.75801331223943,-13.98864419518743,4.63885734678336,3.682596739308605,-5.394582118658137,-3.771355847332902,-0.1398907733020452,-4.677334485420844,-3.697164841757278,15.70200121124157,6.523124302615126,8.065181096292916,11.08763198076466,4.581035329511304,-2.819074224545068,-1.911699547448046
3.433488234297153,2.624309397693245,2.573334590196804,-2.141889206089527,-1.380698503243081,-13.98864419518743,25.63814194390028,-1.16697434574103,1.92045234417434,7.918996824251892,-4.039447324003208,-4.457787773031802,8.958200813329169,2.047006813282885,-1.442701670936017,8.089590676108466,2.403517364450682,-11.0456212414196,5.599705996907629,9.796784563777399,-6.153176119537035
27.45105212511364,10.06398520467916,9.015855850925737,-13.31314542937402,-1.321839772828459,4.63885734678336,-1.166974345741031,59.95340197455621,33.90864269728173,-21.75114431592846,-5.402478940353529,4.754473106551561,17.10639162543229,16.00094813233195,-10.84815080778331,6.847509367732727,13.26296442910147,3.834581493638473,9.434696386192234,2.507673269280203,22.67536633975044
10.30754288966295,3.244113427112955,-5.299331082737015,-21.24087769767587,-6.523228110531109,3.682596739308604,1.92045234417434,33.90864269728173,46.52587706950695,3.974728940202377,-17.4193531661917,4.690808045937211,-0.4475423243005994,10.15619603936047,-14.42367231899407,22.75149071867172,11.48716663513202,7.219986237384421,9.87465858788952,-4.893618654881562,4.343359076440061
-17.5622421035057,-8.97792958495954,-23.51650067925267,-8.781052366208588,-2.719291247260551,-5.394582118658136,7.91899682425189,-21.75114431592846,3.974728940202375,39.15338734370395,-11.83313953129339,-2.101707778165149,-16.13108282639121,3.393396999917738,-15.14556905831246,13.2701737675544,-2.685674172290899,6.104666931692942,2.358183231727925,0.02992495549098202,-18.50390484518748
-15.33827392251176,5.685205340431363,6.020830030799603,4.50382609133061,4.77411779163267,-3.771355847332902,-4.039447324003207,-5.402478940353528,-17.4193531661917,-11.83313953129339,44.46996763361962,-4.228743366938666,16.25041835433937,3.364092660795905,14.51347386201408,-21.78295660486189,7.729746850814761,-7.112290999954951,3.074372240627784,-4.620483705547688,8.211993337408545
6.486823239992856,-2.273088982096359,-2.681010800687912,-1.179096205011789,11.14805802505397,-0.1398907733020442,-4.457787773031804,4.754473106551561,4.690808045937212,-2.101707778165149,-4.228743366938666,16.09969820755356,-7.010020263842438,-1.156533977249617,-0.1530378002307434,2.447749279376265,-2.321206652404177,5.049001116094924,0.3073726411191807,1.69346286661824,-1.222002591019969
7.917772338537759,7.079488930527889,12.15296451538824,0.09155059084449384,-15.5295218341506,-4.677334485420844,8.958200813329171,17.10639162543229,-0.4475423243005985,-16.13108282639121,16.25041835433937,-7.010020263842438,43.1570476885565,3.817337806264649,9.063253440164836,-2.667762288443579,17.88728434467166,-1.482641448278821,7.166939568070043,-2.170120535909012,14.86643477123035
8.24885029322013,6.705636923139608,-7.817764541035951,-6.262565770307041,13.75645705716215,-3.697164841757278,2.047006813282886,16.00094813233196,10.15619603936047,3.393396999917738,3.364092660795905,-1.156533977249617,3.817337806264649,30.91558252783454,-3.112466325789467,-5.175688869142503,3.722696165522338,4.548621208036725,8.691119631254834,7.295791267179506,4.373540758350853
1.421578439025343,1.804858539124679,-5.486117941197451,8.442652285311802,-1.707480217746295,15.70200121124157,-1.442701670936017,-10.84815080778331,-14.42367231899407,-15.14556905831246,14.51347386201408,-0.1530378002307435,9.063253440164836,-3.112466325789467,39.43911746903113,-7.525249925472496,10.4689232675621,0.1920078517345226,5.571353377018833,-1.18940209299738,-3.592333107276451
-1.536189293310585,-24.35463717105651,-13.64814771329505,-6.521215259119594,5.607090924855841,6.523124302615128,8.089590676108465,6.847509367732726,22.75149071867172,13.2701737675544,-21.78295660486189,2.447749279376264,-2.667762288443579,-5.175688869142504,-7.525249925472493,53.52982067826493,28.82113914104148,12.10636093643958,-12.14606032837014,1.6123184502776,-15.25792620750108
-5.239120574290403,-25.29528590707246,-18.67861040874247,-6.62335421833811,-8.901107805846166,8.065181096292916,2.403517364450682,13.26296442910147,11.48716663513202,-2.685674172290897,7.729746850814763,-2.321206652404178,17.88728434467166,3.722696165522339,10.4689232675621,28.82113914104149,53.23046298610877,13.71148629733844,-3.337496026482062,-0.5689135623365977,8.270195647356129
1.20400143097238,-8.000978647388656,-13.93749110879308,-9.726536573597897,-3.4501965936896,11.08763198076466,-11.0456212414196,3.834581493638474,7.219986237384421,6.104666931692941,-7.112290999954951,5.049001116094924,-1.482641448278822,4.548621208036725,0.192007851734523,12.10636093643958,13.71148629733844,26.18841573469039,-3.708554574214392,-0.8176978986029376,-7.276638382184847
3.15283070394534,34.90115123344589,-13.55864764811055,3.075965411897312,-19.77505977176734,4.581035329511304,5.599705996907629,9.434696386192234,9.874658587889519,2.358183231727925,3.074372240627784,0.3073726411191803,7.166939568070043,8.691119631254834,5.571353377018832,-12.14606032837014,-3.337496026482062,-3.708554574214392,48.58488006688656,-4.756418859229247,9.424119531012991
7.218597605862865,-1.667927311409527,2.570670726038564,1.090303807873834,14.94583346950537,-2.819074224545068,9.796784563777399,2.507673269280204,-4.893618654881563,0.02992495549098032,-4.620483705547688,1.69346286661824,-2.170120535909012,7.295791267179506,-1.189402092997379,1.6123184502776,-0.5689135623365977,-0.817697898602937,-4.756418859229246,17.17874446019783,-0.7065913029805686
4.04407734614146,7.497520149168182,6.59771343750951,1.241805985105833,-10.23499095306803,-1.911699547448048,-6.153176119537034,22.67536633975044,4.343359076440063,-18.50390484518748,8.211993337408543,-1.222002591019968,14.86643477123035,4.373540758350853,-3.592333107276452,-15.25792620750108,8.270195647356129,-7.276638382184846,9.424119531012987,-0.706591302980568,41.16816012798186
