64.67533151000197,-3.9173073590068,-9.825357606475222,4.127262230617764,-5.88463849578312,-4.313703697625622,9.270367179814944,-18.73658314083946,8.413044183160842,-23.49797371527181,-6.782058339900332,-8.679208055396492,-7.695097105802189,-13.27769596185028,5.846977782738292,-3.604481454903861,22.53577569653896,-24.29898022934289,9.957075808213562,3.618829549949067,14.70972060956765,-8.155058131893668,2.026315065680834,-2.48634637247117,-13.6506308727362,-0.2056062240503912,21.56088611347173,-0.713434332957704,4.772738540291094,-5.461210332364228,-3.254319985409805,8.770927481656196,3.27073636084672
-3.917307359006799,57.33229813458927,15.17215213272893,-7.291184096640515,1.429459489842782,-5.252699483616183,14.97489437186224,22.90776900173407,-20.33814930477404,-8.441001342295088,-6.142792871255472,-8.7969936246551,-5.049292106459421,-19.50395293453479,11.56570418165505,6.201149074949711,13.60991930393436,10.07706529072113,-8.907782258884893,4.395492204611404,0.3239353193007151,-7.242529122324475,9.990679115867319,8.944652359723202,1.353692085533535,1.481512296402383,-19.55191890769808,-1.61729539372245,8.345902091199354,6.048481463037182,9.174330127154711,-3.091223351831621,2.162448953616515
-9.825357606475224,15.17215213272893,79.71969097698751,-15.19427138344375,9.473350404674088,15.84888002082342,-2.150578419902997,7.43570866131704,0.0066839873524661,14.5739794141946,-3.775162242274523,-1.143940737556704,8.119698382116773,4.420837421768106,14.7806206619618,-11.87543537183071,10.75674943533843,12.506964981769,2.617579836442531,7.00032617609298,-3.384872299735791,-14.68072906883219,8.1471446314329,-38.52271287880576,-10.77893358504288,2.860341096055747,-6.207178927306995,23.60014321679309,6.327675093103315,11.25562542185012,6.153488225234674,-42.69454247837559,-3.979910891857751
4.127262230617765,-7.291184096640518,-15.19427138344375,52.43968221790126,-16.65008698782037,-19.59803089715082,0.4851424811234526,-2.012477273037389,-5.241961128168375,6.437697498042025,-10.70450400906458,12.0335574224418,-16.50783375835554,-8.976406279521134,-3.299250559112492,-13.73635199587899,-15.22692339667673,-8.293861850704612,-3.853681593148292,3.562738672072289,-1.037906981671562,4.268710931823407,-7.651341320251934,16.20933465907938,5.682504479400704,4.288460093193255,15.58598031477946,-5.170702979576647,7.953268595488481,-7.344433733118749,-13.92930617608559,5.325396555022913,5.053589201234505
-5.88463849578312,1.429459489842783,9.473350404674088,-16.65008698782037,62.21026583137787,-24.55710959117927,5.20644102747948,16.43827039750179,-25.90422712138531,-5.372917089623276,-2.61561922004104,-19.43618518896293,0.8500665431136808,0.9209654154956889,9.906760257458588,12.94266963942781,-13.30313802865026,27.3136169888901,-36.32073789353638,3.042118034041121,12.42056068216401,4.363197443268303,6.740154598320286,-3.670911692475693,3.48531009570136,-8.472616591833276,-25.99509552078879,25.30524732897584,-5.081973258084898,12.27279874976618,-15.86680175221898,-7.852000502005768,-17.88619698003931
-4.313703697625622,-5.252699483616183,15.84888002082342,-19.59803089715082,-24.55710959117927,95.68572162401153,-7.11543384549363,-8.111832784948117,22.44070685124632,6.938888045709878,7.4039857812481,25.98197574530234,-7.970382803376555,11.31410071704387,-12.80089716012323,12.04530963616135,-0.2916685937886265,8.31387020283471,33.90695184449764,24.20775704852251,-3.579874097866308,-18.86521622884641,-7.784224218619746,-23.6149639866155,4.354909354562674,-3.901337977136304,-5.14699781410971,1.967714425960905,-17.71885901170252,-6.847132714253398,15.75357119445634,8.424014598075338,13.97175517948058
9.27036717981494,14.97489437186224,-2.150578419902997,0.4851424811234534,5.206441027479478,-7.11543384549363,66.24586854855983,23.97600777498477,-14.3868634112989,-2.96495423003087,28.18119510853072,3.045260447246881,0.1745747810559121,-24.50703873219562,4.319310859579772,14.1897830583585,22.79256483428098,-0.3145332549749622,11.30750036958494,-6.155568702663862,9.161970965943826,-0.05053175062685547,-8.254446937046803,1.921307003230287,-10.79102648368561,-4.47050100519353,21.82233001148619,3.877000612625354,19.62332339714708,-0.09281578473111214,-8.274574133325592,-14.35381793191222,-13.72490681757753
-18.73658314083946,22.90776900173407,7.43570866131704,-2.01247727303739,16.4382703975018,-8.111832784948119,23.97600777498477,67.42926176355516,-50.22116078382863,-2.024755870438871,23.64453928393181,-1.773807395526498,-5.103620013755679,-6.202409313520153,5.33441945136056,-16.31151035134121,-4.531499669069214,17.32224340728194,6.615657770145083,-12.86980791064025,-0.6995596539381507,12.24637693611342,9.084871786940989,11.24985329407197,-8.29704335728116,-19.36239543429643,3.749255889036422,-9.21645963489012,2.871076661050433,-9.09447548506448,-3.781396665236339,-1.426620827621994,-20.90353510888581
8.413044183160844,-20.33814930477403,0.006683987352465366,-5.241961128168374,-25.90422712138531,22.44070685124632,-14.3868634112989,-50.22116078382863,109.0318809222907,14.73008215863464,11.42822295778255,15.79090985212702,13.29735698298177,12.28348894570227,-6.735003286188322,1.486193376207749,-5.067595352555212,-21.20614631991573,17.06295282006193,2.461648992849633,3.240085631434869,-18.33974988887989,-1.258780488034867,-24.8911047478978,-0.7481118062258835,26.46613735129825,22.16915930794042,18.98232745627783,-14.24796191986919,22.27684290926183,19.79192506720339,-4.89009788834735,13.17372983910074
-23.49797371527181,-8.441001342295088,14.5739794141946,6.437697498042023,-5.372917089623276,6.938888045709878,-2.96495423003087,-2.024755870438869,14.73008215863463,54.39828668938483,-3.436945033293127,14.69711306144623,-15.66853779025573,9.235622076674613,-1.819010489692897,-2.631082667961135,-3.783378321669431,-8.235117794309337,4.517027847630711,9.988334184939747,-8.993870215236335,-9.099369545693559,2.125084208915913,-13.54858722136133,-1.845788606369063,6.383477169300671,10.74788887483364,6.839796193150595,-11.99016138057151,15.60160771431374,6.452994017555791,-25.17419653153947,12.37721258838621
-6.782058339900332,-6.142792871255473,-3.775162242274522,-10.70450400906458,-2.615619220041042,7.403985781248101,28.18119510853072,23.64453928393181,11.42822295778255,-3.436945033293128,81.34518447562382,23.93216332064332,-1.83480800356653,1.374772914694872,-18.89522864170396,-3.140915663553694,18.34822217575077,-11.77988062155033,10.79520713420623,-4.385666001377876,-12.29196183013593,12.8755214364534,-1.299376440985963,-15.34396535919917,-4.656788819441729,-11.5836714220416,11.15020499612192,19.85790106134043,-4.771643312421227,-18.30486588052869,12.59416950132212,-3.651672599555818,-4.176419819634655
-8.67920805539649,-8.7969936246551,-1.143940737556704,12.0335574224418,-19.43618518896293,25.98197574530234,3.045260447246881,-1.773807395526499,15.79090985212702,14.69711306144623,23.93216332064332,62.60481480247086,-11.25305931454956,-0.9809208231299107,-22.03779350619111,-5.09532359378653,-1.638828704700792,-1.699694109948498,14.80347032151163,21.60480908889687,-9.479760713855988,-5.680891976846433,-5.63711781299249,-7.561235747358804,13.24227909403077,4.933498646397455,-8.891521346073612,21.77654045866851,-0.2663987318162366,-1.481346272487327,-0.745758674235352,5.742501418837382,2.208502685563733
-7.695097105802189,-5.04929210645942,8.119698382116773,-16.50783375835554,0.8500665431136805,-7.970382803376558,0.1745747810559125,-5.103620013755679,13.29735698298177,-15.66853779025573,-1.83480800356653,-11.25305931454956,81.93112956175523,4.891392285146837,-13.85324374219327,-23.68934230398023,4.756064713425327,13.80322274198675,2.84257430929407,-12.58512517770954,2.144402682454227,-9.434911345658572,3.364883846581896,-0.3753617820372545,12.1226934558565,11.23973112173864,5.943419609956471,-10.04952832260987,-1.608852305176824,0.2603317239656122,-12.70185939569535,2.13342624742684,-17.50083080003461
-13.27769596185028,-19.50395293453479,4.420837421768105,-8.976406279521134,0.9209654154956866,11.31410071704387,-24.50703873219562,-6.202409313520153,12.28348894570227,9.235622076674613,1.374772914694873,-0.9809208231299107,4.891392285146837,64.18826611573293,-7.369505073869884,-9.045709396507178,-4.376502295411441,3.984777882023631,11.49778384484569,-3.91410680006338,-4.994133278384076,18.48698247027777,-0.4242037183485711,8.592529650237795,19.32010162952433,0.3665010461643252,8.349484156835411,10.42614147108664,-13.80640216581138,3.233746064606302,-1.676174527543927,3.686460209084335,6.183473601553339
5.846977782738296,11.56570418165505,14.7806206619618,-3.299250559112491,9.906760257458588,-12.80089716012324,4.319310859579774,5.33441945136056,-6.735003286188325,-1.8190104896929,-18.89522864170396,-22.03779350619111,-13.85324374219328,-7.369505073869884,52.90771908853106,1.578703395034878,0.09330966218016309,4.204570499748524,-5.585726181444055,-19.47352947641782,12.61221668756135,-3.013686721929551,7.346647835633601,6.121381284067028,-22.79213413692721,2.888867127963878,-11.38437070235971,-12.21000585098496,8.462981199190004,8.174088408450372,-2.346861064298421,-26.96917910166796,3.960553878056672
-3.604481454903862,6.201149074949712,-11.87543537183071,-13.73635199587899,12.94266963942781,12.04530963616135,14.18978305835849,-16.31151035134121,1.486193376207752,-2.631082667961137,-3.140915663553693,-5.095323593786528,-23.68934230398023,-9.045709396507178,1.57870339503488,71.81935153740133,12.85456848065861,-5.018820513021915,-26.979918796836,5.01456458526272,4.046883330414277,7.906581800049111,-16.59227341746723,5.340807499853487,3.305167641867919,-2.451307428987615,-23.71079250602054,15.40663683351803,5.285862817157057,9.887956492422429,1.054546833813317,2.047454170375804,-7.421190193197489
22.53577569653896,13.60991930393436,10.75674943533843,-15.22692339667673,-13.30313802865027,-0.2916685937886292,22.79256483428098,-4.531499669069214,-5.067595352555213,-3.783378321669431,18.34822217575077,-1.638828704700793,4.756064713425325,-4.376502295411441,0.0933096621801638,12.85456848065861,73.70915962172114,-17.99526919207598,-3.56122475125233,5.600392025485899,-1.810157684162218,-13.05616334777607,0.4454082523459039,9.570899994660659,-4.375141735724846,7.022557425758486,-12.98345311997947,9.666654100703237,9.903054978795375,-1.401385232918222,5.005714407891661,-23.84654750974114,6.919304780533603
-24.29898022934289,10.07706529072113,12.506964981769,-8.29386185070461,27.3136169888901,8.313870202834712,-0.3145332549749627,17.32224340728194,-21.20614631991573,-8.235117794309337,-11.77988062155033,-1.699694109948497,13.80322274198674,3.984777882023631,4.204570499748524,-5.018820513021915,-17.99526919207598,88.14991263629142,-9.665979499343743,-3.049604721341414,-5.339030875797578,-3.398121778669162,-4.419451958436792,-11.20269186452242,21.06618884023898,-4.447112451605057,-23.31914938266822,5.380850730298548,2.564888073665399,22.99110977689015,-22.66226180193973,6.365548438538722,-14.69789087161502
9.957075808213562,-8.907782258884891,2.61757983644253,-3.853681593148294,-36.32073789353639,33.90695184449764,11.30750036958494,6.615657770145087,17.06295282006193,4.517027847630709,10.79520713420623,14.80347032151164,2.842574309294067,11.49778384484569,-5.585726181444055,-26.979918796836,-3.561224751252329,-9.665979499343743,70.6434456755109,-8.136262044620613,-8.551598274433031,5.063869503027148,-13.69535975413376,-16.00480089828073,-13.07619918562438,0.6701045858990821,48.85878438954003,-12.57007547942905,-1.874693846734727,-7.53163540274815,17.12056032660609,14.64485550031536,7.998293222777438
3.618829549949065,4.395492204611404,7.000326176092982,3.562738672072288,3.042118034041122,24.20775704852251,-6.155568702663861,-12.86980791064025,2.461648992849635,9.988334184939749,-4.385666001377876,21.60480908889687,-12.58512517770954,-3.914106800063378,-19.47352947641783,5.014564585262719,5.6003920254859,-3.049604721341414,-8.136262044620613,68.98673956021864,18.91299472692578,-24.46034660554027,-6.476575641792827,-0.5053291582464551,20.35466750210803,-1.813925756709049,-25.43809963809018,21.1321845221449,-6.298964547271444,2.934356267802628,-6.031340237792111,-0.7571541792673203,33.0345207076968
14.70972060956764,0.3239353193007145,-3.384872299735792,-1.037906981671562,12.42056068216401,-3.579874097866308,9.161970965943828,-0.6995596539381497,3.24008563143487,-8.993870215236335,-12.29196183013594,-9.479760713855988,2.144402682454228,-4.994133278384076,12.61221668756135,4.046883330414278,-1.810157684162217,-5.339030875797578,-8.551598274433031,18.91299472692578,43.99678292449894,-19.41294329728212,-4.283737538089457,2.74352515826795,3.531712539541607,-9.28321627253094,-2.311885608127817,-8.056119792210939,6.431404863731506,-0.4894468170660923,-21.70146423235774,-16.19236229749415,19.48368775229407
-8.155058131893671,-7.242529122324476,-14.68072906883219,4.268710931823407,4.363197443268302,-18.86521622884641,-0.05053175062685584,12.24637693611342,-18.33974988887989,-9.099369545693559,12.8755214364534,-5.680891976846433,-9.434911345658573,18.48698247027777,-3.013686721929551,7.906581800049111,-13.05616334777607,-3.398121778669163,5.063869503027148,-24.46034660554027,-19.41294329728212,60.59094309441711,-7.778027946872495,18.29334172302213,-10.22036113596711,-8.90302646107671,9.601930666036129,7.930124310503712,-3.597830035419419,-0.5041526210645793,10.8962855059001,25.41246743076727,-19.25841853407409
2.026315065680835,9.990679115867319,8.147144631432898,-7.651341320251934,6.740154598320287,-7.784224218619745,-8.254446937046803,9.084871786940987,-1.258780488034868,2.125084208915914,-1.299376440985963,-5.637117812992489,3.364883846581896,-0.4242037183485702,7.346647835633604,-16.59227341746723,0.4454082523459042,-4.419451958436794,-13.69535975413376,-6.476575641792827,-4.283737538089456,-7.778027946872495,43.46365800584926,12.62611477059999,-11.01155180887479,-0.5628588032907512,-9.611532788286056,-13.28407020911263,0.4096755526255528,3.47164755924489,-4.363193640758871,3.631258874690869,-12.33901287716537
-2.486346372471171,8.944652359723202,-38.52271287880576,16.20933465907938,-3.670911692475693,-23.61496398661551,1.921307003230288,11.24985329407197,-24.8911047478978,-13.54858722136134,-15.34396535919916,-7.561235747358805,-0.3753617820372541,8.592529650237795,6.121381284067028,5.340807499853491,9.570899994660655,-11.20269186452243,-16.00480089828073,-0.5053291582464556,2.743525158267951,18.29334172302213,12.62611477059999,89.91217525676232,14.22082566675969,3.234524441654292,-19.25913388544742,-17.22586765422057,4.400411954892372,0.9564088414008474,-8.100874676464882,21.22511908933893,-23.85864677660571
-13.65063087273619,1.353692085533534,-10.77893358504288,5.682504479400706,3.485310095701361,4.354909354562675,-10.79102648368561,-8.29704335728116,-0.7481118062258795,-1.845788606369063,-4.656788819441729,13.24227909403077,12.1226934558565,19.32010162952433,-22.79213413692721,3.305167641867918,-4.375141735724846,21.06618884023898,-13.07619918562438,20.35466750210803,3.531712539541607,-10.22036113596711,-11.0115518088748,14.22082566675969,60.90809372804206,-7.469976527369408,-16.66083742801539,0.3807707113584151,-11.7662214468817,-3.92076307670964,-19.48184019953653,9.256223837856329,-8.475909907027633
-0.2056062240503908,1.481512296402383,2.860341096055747,4.288460093193253,-8.472616591833274,-3.901337977136303,-4.47050100519353,-19.36239543429643,26.46613735129825,6.383477169300671,-11.5836714220416,4.933498646397455,11.23973112173864,0.3665010461643255,2.888867127963878,-2.451307428987613,7.022557425758484,-4.447112451605055,0.6701045858990818,-1.813925756709046,-9.28321627253094,-8.903026461076708,-0.5628588032907512,3.234524441654293,-7.469976527369409,42.28867086531456,-8.694330868576976,17.31881970276146,-8.465917855881127,19.25594724624926,10.9991701954225,-0.4685098643719337,4.033985376623171
21.56088611347174,-19.55191890769809,-6.207178927306992,15.58598031477946,-25.99509552078879,-5.146997814109711,21.82233001148619,3.749255889036424,22.16915930794042,10.74788887483364,11.15020499612192,-8.891521346073615,5.943419609956469,8.349484156835411,-11.38437070235971,-23.71079250602054,-12.98345311997947,-23.31914938266822,48.85878438954003,-25.43809963809018,-2.311885608127817,9.601930666036129,-9.611532788286054,-19.25913388544742,-16.66083742801539,-8.694330868576973,107.8945380954073,-16.32541813756578,10.84891711729336,-8.364859953194992,1.943647682839385,1.753691536293603,-10.1063387136218
-0.7134343329577083,-1.617295393722449,23.60014321679309,-5.17070297957665,25.30524732897584,1.967714425960905,3.877000612625355,-9.21645963489012,18.98232745627783,6.839796193150595,19.85790106134043,21.7765404586685,-10.04952832260987,10.42614147108664,-12.21000585098496,15.40663683351804,9.666654100703239,5.380850730298545,-12.57007547942905,21.1321845221449,-8.056119792210941,7.930124310503714,-13.28407020911263,-17.22586765422057,0.3807707113584132,17.31881970276146,-16.32541813756578,86.99902295711468,-3.229592768800403,21.18416417621944,14.93001201991916,-15.92331421733526,7.130675155416125
4.772738540291093,8.345902091199353,6.327675093103315,7.953268595488481,-5.081973258084896,-17.71885901170253,19.62332339714708,2.871076661050433,-14.24796191986919,-11.99016138057151,-4.771643312421227,-0.2663987318162377,-1.608852305176825,-13.80640216581138,8.462981199190006,5.285862817157055,9.903054978795375,2.564888073665397,-1.874693846734727,-6.298964547271444,6.431404863731506,-3.597830035419418,0.4096755526255526,4.400411954892372,-11.7662214468817,-8.465917855881127,10.84891711729335,-3.229592768800404,49.40590236250823,-1.256351346693851,-16.96378130375504,-13.74903565441192,4.988954176325326
-5.461210332364229,6.048481463037181,11.25562542185012,-7.344433733118747,12.27279874976618,-6.847132714253394,-0.09281578473111168,-9.09447548506448,22.27684290926183,15.60160771431374,-18.30486588052869,-1.481346272487326,0.2603317239656093,3.233746064606301,8.174088408450372,9.887956492422427,-1.401385232918223,22.99110977689015,-7.53163540274815,2.934356267802629,-0.4894468170660929,-0.5041526210645788,3.471647559244889,0.9564088414008483,-3.920763076709642,19.25594724624926,-8.364859953194991,21.18416417621944,-1.25635134669385,50.28918060257497,0.1302019209155248,-5.708491148473557,-6.258387925680331
-3.254319985409805,9.174330127154711,6.153488225234674,-13.92930617608559,-15.86680175221898,15.75357119445634,-8.274574133325594,-3.781396665236339,19.79192506720339,6.452994017555791,12.59416950132212,-0.7457586742353527,-12.70185939569535,-1.676174527543927,-2.346861064298422,1.054546833813315,5.005714407891662,-22.66226180193973,17.12056032660609,-6.03134023779211,-21.70146423235774,10.8962855059001,-4.363193640758872,-8.100874676464882,-19.48184019953653,10.9991701954225,1.943647682839384,14.93001201991916,-16.96378130375504,0.1302019209155257,65.62868182712003,-5.137419843786349,4.589250670068012
8.770927481656196,-3.091223351831618,-42.69454247837559,5.325396555022913,-7.852000502005767,8.424014598075336,-14.35381793191222,-1.426620827621993,-4.890097888347352,-25.17419653153947,-3.651672599555818,5.742501418837382,2.13342624742684,3.686460209084336,-26.96917910166797,2.047454170375801,-23.84654750974114,6.365548438538722,14.64485550031536,-0.7571541792673201,-16.19236229749415,25.41246743076727,3.63125887469087,21.22511908933893,9.256223837856329,-0.4685098643719329,1.753691536293603,-15.92331421733526,-13.74903565441192,-5.708491148473557,-5.137419843786349,80.5520068785308,-13.473430667793
3.270736360846722,2.162448953616514,-3.979910891857752,5.053589201234505,-17.8861969800393,13.97175517948058,-13.72490681757753,-20.90353510888581,13.17372983910074,12.37721258838621,-4.176419819634655,2.208502685563734,-17.50083080003461,6.183473601553338,3.960553878056672,-7.421190193197493,6.919304780533603,-14.69789087161502,7.998293222777439,33.03452070769679,19.48368775229406,-19.25841853407409,-12.33901287716537,-23.85864677660571,-8.475909907027635,4.033985376623168,-10.1063387136218,7.130675155416126,4.988954176325331,-6.258387925680333,4.589250670068011,-13.473430667793,104.7035927048812
