61.22874867823123,-9.014241886776787,-9.471588391192224,13.79406816925305,9.754506547080204,-2.148109842187418,2.481014757710525,-3.218666199207956,9.050364153832048,-8.585173312105947,-30.03777902225711,-4.211526554258904,-14.49046499103417,-18.35714038889366,-18.49994044429125,6.837307911039757,10.68870818602439,24.21753814118288,-3.736949612916538,1.035807168652717,-1.083797018801531,-2.554470465000055,-24.9530793641911,-5.540304600598172,-21.65149343690311,-6.987343910834066,-5.134621517038751,4.349973395793105,-6.674876495091286,-34.22666880964837,-15.84862065611111,7.434775838439127,-9.169658106544356,-5.538537552799914,-7.750991794602482,-7.083170186806647,6.521808277068626
-9.014241886776787,107.5104675219951,-2.349991183499865,-13.24737335964518,-20.07899289616854,-15.32471283465833,15.81713747237866,-1.756476755103564,15.66729822840818,19.99283156440198,3.370362566107227,-0.6912772847819717,-28.58284675897107,-2.832142269640787,-4.264354055557313,4.597320569837079,12.37336292700357,6.696312593635239,36.28586099846032,-18.73368163332115,-27.32661309302298,15.8299256093407,26.50688867027464,1.264342470470941,-6.105212592866311,-5.352044488108087,3.279946332444753,-7.926093590804129,13.90006535422028,-9.668169507963812,31.70664950795321,-39.59888144160748,-1.871697723062929,-4.895644944683702,26.74791529000968,-6.377291893751727,-25.81270068222639
-9.471588391192224,-2.349991183499867,40.89039099080589,7.545696727288371,0.2534983385342106,-0.9988225663416456,-15.3937628020544,4.380768665146729,3.656010902205596,10.37320698299108,-9.730673383302374,4.476891955956862,24.06130316865817,2.80175820738989,7.164466574512148,-14.67057369369964,8.812086228197359,6.35400535661543,13.1225283172075,7.541691207419188,4.002138686077161,-12.07686895645026,14.69123336034564,5.880976950763277,-7.913475377157397,-0.614540019466442,8.70635924270972,18.69273430633375,-0.7177335737839595,17.29559412938102,12.22896887611927,-5.679585697504813,3.068700272659711,-4.972106032656092,-0.6343666145760369,-4.341471246967766,1.006204718414665
13.79406816925305,-13.24737335964518,7.545696727288372,71.14517346851039,9.066552986323927,0.6183399366165717,-18.11144121610818,19.68504885036994,6.457128221683805,1.660234501626334,-23.35193063235936,-7.221130433410167,2.902395421421881,-27.22839374308964,1.115085370349234,-6.427196353911795,4.463467517491318,19.60407531687751,-3.521063384932969,6.333161320108804,-4.182745557619291,-28.70347020863524,-13.99153101462159,27.73057682628503,-15.46289897154512,-11.75859071844333,-10.22260053241746,10.41632561451532,-6.210670243931072,16.95549161426478,-7.012660874199254,-0.05292952260923287,-11.86279725383231,15.97987219846394,-6.176721545803367,-3.787748355315745,-3.021794451528427
9.754506547080206,-20.07899289616854,0.2534983385342114,9.066552986323931,61.33502544485597,-2.620720518511362,-1.258696540330302,14.29402560065893,-10.33953083327361,0.948300072360599,-11.25186066302195,-4.758168396834427,-12.64849359113067,12.51959259207943,2.132334593276878,0.5408721487149525,-29.3119599128738,4.534298971482419,-7.817037267807238,-0.9883743514190185,-4.125879188889551,16.26817947234435,-39.86475333871083,23.96616596045623,0.4417889722541041,-17.42390379065439,2.945121850886683,1.436206224106549,-20.44971080253933,1.25396839421314,-7.779409203003663,10.7145898111241,20.42525558169788,7.296716488228056,1.34233895861798,5.930526317286114,21.80881454633282
-2.148109842187418,-15.32471283465833,-0.9988225663416462,0.6183399366165706,-2.620720518511361,80.10635745502955,-18.66902681347992,-0.8685125431089699,-11.87233385158272,-2.424072458571415,5.944188048147614,-12.44409056356364,19.39435703725729,2.833245520129612,7.757883991887765,-17.24465142394448,-14.36054699438967,9.960807768610762,5.947106029312907,9.332330033827557,0.4273690030335988,-6.416277208525795,-24.94619514905771,-0.8193528882367892,-7.803200742102086,4.330606566954327,16.13390046456099,-16.38288945128715,-18.37776043525443,12.23554550028591,-11.23484021369623,0.7673419826700154,-34.00420057334197,2.014844022073306,9.337819300612912,2.428528898108776,-8.939039583034686
2.481014757710525,15.81713747237866,-15.3937628020544,-18.11144121610818,-1.258696540330304,-18.66902681347992,74.71304030874096,-17.74979593948897,-3.388655313550524,-3.747088616688206,11.35603665582103,5.256776389861424,-9.96484394437244,15.69191024733937,-5.217137759796811,-6.081362320300382,18.40086810264851,-30.74207146597379,-4.492520092936067,-20.95908572838168,-11.82168658077398,9.711488807773737,16.80057176714767,-10.55593225631338,-1.147695875133274,-9.050665359473321,-12.08995167881388,-6.332675657214118,12.10071817914474,-11.59007865842287,-12.18011387802172,8.509456015762746,-1.002274483320366,6.032678823951181,7.276854194587718,-0.5605469720618781,-6.909589564813475
-3.218666199207953,-1.756476755103564,4.380768665146728,19.68504885036994,14.29402560065893,-0.8685125431089699,-17.74979593948897,76.00212374008355,4.402836196902373,23.88994018436378,-17.02020336453843,-25.44233376656837,7.705464973469228,-17.47756512658456,6.118609843275867,-13.36184860516372,-8.960737197480894,7.993887171160832,-10.78687925433913,6.502348190707981,-5.573321839859906,-16.47095165821899,-12.10743430953801,9.023268956882083,12.20066537882713,-3.334846212945726,-5.075589111533274,-10.01628165152682,-25.19425462947029,43.8082097585202,-0.9772621929344244,-2.945606820942758,5.281763289857861,12.59843152441662,15.3818683617538,27.2308571455839,-12.94788250470325
9.050364153832048,15.66729822840818,3.656010902205596,6.457128221683805,-10.33953083327361,-11.87233385158272,-3.388655313550525,4.402836196902374,90.78578684810329,-11.62176936802433,-17.68804926494544,6.597431206472774,5.007741058717359,-28.31879516912895,1.717386807465603,15.07224498316342,-2.89435462315443,20.72649430721966,13.109079596935,18.905711293274,-6.560945387627322,-14.18333754820799,-5.833592257232141,1.594498808628558,-15.90453403293316,-0.5542949843473894,-5.595607873464445,2.686727922667715,-12.79352915995636,16.24121076579956,-17.49010598979873,-1.846066285001635,-12.15948646120674,-17.95344750285357,-7.741934188672597,-2.09623102107114,14.84752447447732
-8.585173312105946,19.99283156440198,10.37320698299107,1.660234501626331,0.9483000723606009,-2.424072458571418,-3.747088616688206,23.88994018436378,-11.62176936802433,46.62730239320923,-11.02090276318619,-8.220933545773942,-5.586288671616011,-6.842909395938883,7.40556560171431,-4.407255675166707,-2.091748190199529,-0.2911658495592295,9.114627657195607,-3.641794135969689,-7.134387740233244,4.251013434904562,5.452376347139428,6.088926729401511,4.668533507419149,4.979519632580372,4.613041047627515,-2.194013558889677,-9.836495560054898,13.55317844547032,23.05137396757155,-11.91350650589961,11.65013867067004,-10.66134003166837,11.96096965279224,20.87984781577022,-26.36903384137112
-30.03777902225711,3.370362566107227,-9.730673383302374,-23.35193063235936,-11.25186066302195,5.944188048147614,11.35603665582103,-17.02020336453843,-17.68804926494544,-11.02090276318619,91.16881101497992,-10.05547702136315,4.950578116269466,-0.02263391375701219,6.081297470882785,-18.39703460816396,4.194358183418903,-20.53232898894459,15.74278370414473,-10.32198995213549,-3.60548583688449,17.38953067628336,26.06633996406626,-16.928260349169,30.92936906974511,11.55454687178936,4.444059156673049,-30.18218110174583,20.82346457689423,-5.857773382868547,-11.70052430961869,25.86775322719049,9.595884592539432,-4.925290798526769,15.78024549948645,-0.3547870472148972,15.6329147205138
-4.211526554258906,-0.691277284781971,4.476891955956863,-7.221130433410167,-4.758168396834426,-12.44409056356364,5.256776389861426,-25.44233376656837,6.597431206472774,-8.220933545773942,-10.05547702136315,52.43077487293597,-6.938111755541398,12.21453101174546,-1.106433038690193,17.60221761241402,-0.9660169356393946,-8.829658948014263,-19.04594549688477,-10.28634549869124,-1.62669504757764,6.450819510827496,6.715061672445326,9.764362512207162,-2.581515093473712,-0.01712991876216591,-16.26840788395758,16.3775078945958,20.18374516291577,-14.02474246972572,-8.15420468182797,-3.822618453097718,-14.48769357744245,-12.81152790251001,-15.74995413901093,-12.67324316726776,-2.528368036902697
-14.49046499103417,-28.58284675897107,24.06130316865817,2.902395421421879,-12.64849359113067,19.39435703725729,-9.964843944372442,7.705464973469232,5.007741058717359,-5.586288671616011,4.950578116269466,-6.938111755541401,76.18537702481842,2.011687108710145,-2.373714004891676,-14.4334642899457,7.041347693249192,-1.173399394618038,-3.317385525281991,21.08678665252673,16.64789695420439,-32.10325085997025,17.8976242872259,6.661802987336182,3.534590818045093,3.428838027345437,13.69362453123213,2.465301696937598,-12.35721470525843,32.75760528780399,-8.472874624973299,6.436567851339406,-10.87363429728314,3.840653544518406,18.92132796480139,21.48362921325582,2.042577303010254
-18.35714038889366,-2.832142269640787,2.80175820738989,-27.22839374308964,12.51959259207943,2.833245520129612,15.69191024733937,-17.47756512658456,-28.31879516912895,-6.842909395938883,-0.02263391375701497,12.21453101174546,2.011687108710145,86.18215895266134,5.72535733132372,-2.94743804819691,-3.347839407348285,-17.86907076501387,-10.17452249840776,-10.05382616413932,12.80561162790523,5.372148945029417,0.5318260261981153,12.41499397589654,-1.244145228758585,2.657265671975191,-2.294786948110438,-3.120207223029835,2.222786126090981,-0.4357046929379497,4.335833431101318,-8.592270669321326,9.991813302318535,17.08878540804371,-12.43076634244799,-9.290956123784721,0.6607991783014096
-18.49994044429125,-4.264354055557313,7.164466574512148,1.115085370349235,2.132334593276879,7.757883991887767,-5.217137759796812,6.118609843275867,1.717386807465602,7.40556560171431,6.081297470882786,-1.106433038690192,-2.373714004891675,5.725357331323721,41.80549516587168,5.636047317123921,0.2840221405998184,0.7512318734018462,-2.039413199750442,14.42398083477075,9.470582303416446,-8.43386196350588,-6.300171984617912,-5.471424408330162,1.657160997484924,7.380448515188998,16.42153758748792,1.933727670922321,-15.14255180867437,12.60299508814139,1.590969178194722,3.138081911247567,2.878799648302169,14.32203507607643,-15.48057733788062,5.675694979934275,3.993299084465224
6.837307911039755,4.597320569837077,-14.67057369369964,-6.427196353911796,0.5408721487149541,-17.24465142394449,-6.081362320300381,-13.36184860516372,15.07224498316342,-4.407255675166707,-18.39703460816396,17.60221761241402,-14.4334642899457,-2.947438048196914,5.63604731712392,74.72977364657574,-14.4729332539838,-11.10714451496959,-22.4676282557567,7.107858614306042,23.13321642517035,9.045805014629995,-24.11049197787844,-5.696389749312189,8.097572199146105,-3.365212618686731,8.10275762799195,8.658737224688259,-5.881398638767395,-16.14133176635479,8.035823463142226,-10.04357297726714,16.52553994776181,1.311697141918717,-24.32956276008378,1.524995641141579,5.627728567881086
10.68870818602438,12.37336292700357,8.812086228197359,4.463467517491319,-29.3119599128738,-14.36054699438967,18.40086810264851,-8.960737197480894,-2.894354623154424,-2.091748190199529,4.194358183418902,-0.9660169356393945,7.041347693249191,-3.347839407348284,0.2840221405998189,-14.4729332539838,83.8510671560776,-7.130086011224082,-2.121846265771324,-14.82793209661099,-11.44599594382819,-12.4495719100674,28.03833246827433,-18.94162302345088,-10.45273192105069,10.70777658640449,-6.301455948160903,10.18868582535199,33.77046419309726,-31.42811285855302,-16.28277093800513,-1.81215114596669,-7.120823045442927,-9.687050515961573,-7.417340852703965,-10.78762737236061,1.536150165375646
24.21753814118288,6.696312593635242,6.354005356615435,19.60407531687751,4.534298971482418,9.960807768610762,-30.74207146597379,7.99388717116083,20.72649430721966,-0.2911658495592298,-20.53232898894459,-8.829658948014263,-1.173399394618038,-17.86907076501387,0.7512318734018454,-11.10714451496959,-7.130086011224084,63.62117474254065,14.43696473670592,16.68296369526132,-10.66635862168518,-21.90418054426722,-13.45707841114805,3.637871471092404,-14.26003568239223,-2.332747872485511,-0.316464008813017,6.410518844742005,-5.238814717484753,0.3502614004061037,-0.5561526411330412,-7.606541104193632,-5.980843668773903,-8.225312433205874,3.825536546359054,-10.89001700584472,8.432343770531439
-3.736949612916538,36.28586099846032,13.1225283172075,-3.521063384932968,-7.817037267807238,5.947106029312908,-4.49252009293607,-10.78687925433914,13.109079596935,9.114627657195605,15.74278370414473,-19.04594549688477,-3.317385525281992,-10.17452249840776,-2.039413199750442,-22.4676282557567,-2.121846265771325,14.43696473670593,66.38109466993509,0.2925827145056518,-2.005958272524815,10.62207359870616,11.42210791045494,-1.178169582799157,-15.05736399088032,0.5120697051140228,17.69932971923271,-2.775754306685624,-5.182902992373211,-0.12392350058152,25.17383401617276,-8.580457711351896,1.734520583034358,-19.18360499974044,17.24868386143588,-9.103575411802169,11.59487056730231
1.035807168652717,-18.73368163332115,7.541691207419186,6.333161320108805,-0.9883743514190185,9.332330033827558,-20.95908572838169,6.502348190707979,18.905711293274,-3.641794135969691,-10.32198995213549,-10.28634549869124,21.08678665252673,-10.05382616413931,14.42398083477075,7.107858614306042,-14.82793209661099,16.68296369526133,0.2925827145056499,46.71148742426088,14.53682239472021,-23.31036000119345,-17.32319827428521,-13.20062588399617,-6.653652282369089,-3.004443165305131,15.13291889724215,4.395027208925439,-30.6778447411472,21.0283719887337,1.644484917387579,1.198444208875126,3.649049809766623,14.61989176413072,-0.7365122308142488,-2.598648371727086,-3.523160532780464
-1.08379701880153,-27.32661309302298,4.002138686077162,-4.18274555761929,-4.125879188889549,0.4273690030336004,-11.82168658077398,-5.573321839859905,-6.560945387627325,-7.134387740233243,-3.605485836884493,-1.62669504757764,16.64789695420438,12.80561162790523,9.470582303416444,23.13321642517035,-11.44599594382819,-10.66635862168518,-2.005958272524816,14.53682239472021,74.90047508406207,0.3901876887927773,-13.85975951940802,0.5004763214670924,9.575564671800022,-7.612199729767999,24.36788222412303,2.420953978480928,-19.49004626209415,4.797393722328104,20.57967696037268,0.8098192868336712,3.519904801212193,15.50230373999498,-13.94802722911206,14.58550642521776,11.91582682062643
-2.554470465000055,15.8299256093407,-12.07686895645026,-28.70347020863524,16.26817947234435,-6.416277208525796,9.711488807773735,-16.470951658219,-14.18333754820799,4.251013434904562,17.38953067628336,6.450819510827499,-32.10325085997025,5.372148945029418,-8.43386196350588,9.045805014629993,-12.4495719100674,-21.90418054426722,10.62207359870616,-23.31036000119345,0.3901876887927761,61.95819387586268,-3.461712285515715,-5.877938620738081,13.51948426573519,-3.403058488556656,8.124227722762281,-13.36407219554455,8.257001187459347,-28.85505429354622,7.23593048034974,-3.746541067154637,10.93161160141451,-12.29584186273793,-0.5520111978378196,0.0612876880311387,7.066763981136076
-24.9530793641911,26.50688867027463,14.69123336034564,-13.99153101462159,-39.86475333871083,-24.94619514905771,16.80057176714767,-12.10743430953801,-5.833592257232143,5.452376347139427,26.06633996406626,6.715061672445328,17.8976242872259,0.5318260261981171,-6.300171984617911,-24.11049197787844,28.03833246827433,-13.45707841114805,11.42210791045494,-17.32319827428521,-13.85975951940803,-3.461712285515714,72.74589199841883,-10.15056868136998,8.883469421192581,13.29627869708137,-2.942163188304154,-0.1775958761591507,33.25194170367894,11.35026123865625,17.83891412879753,-3.981522099437543,0.8376101596156653,-5.494480926906803,14.18173554901847,-3.977467026391162,-16.87698054507815
-5.540304600598173,1.264342470470939,5.880976950763278,27.73057682628503,23.96616596045623,-0.8193528882367892,-10.55593225631338,9.023268956882085,1.594498808628559,6.088926729401512,-16.928260349169,9.764362512207162,6.661802987336182,12.41499397589654,-5.471424408330163,-5.696389749312187,-18.94162302345088,3.637871471092402,-1.178169582799158,-13.20062588399617,0.5004763214670893,-5.877938620738081,-10.15056868136998,69.27576544154346,-15.31973464581744,-18.03145845253559,-8.790356322800765,-0.7681526419093037,-2.129841010891786,5.333428294265437,3.620290383111942,-11.3060608510432,-11.19642439701931,6.692432361841528,-1.731501376393802,15.18172209098251,2.903626557837422
-21.65149343690311,-6.105212592866311,-7.913475377157395,-15.46289897154512,0.4417889722541041,-7.803200742102086,-1.147695875133275,12.20066537882713,-15.90453403293316,4.668533507419149,30.92936906974511,-2.581515093473711,3.534590818045094,-1.244145228758583,1.657160997484926,8.097572199146104,-10.45273192105068,-14.26003568239222,-15.05736399088032,-6.653652282369087,9.575564671800022,13.51948426573519,8.883469421192581,-15.31973464581744,60.89739886517985,3.137324057755683,-0.09854115044508292,-0.4936158972599972,9.38769138066945,7.898971286299839,-0.08809354837977419,-2.821943453241513,21.35302093812563,-0.4113200835617616,14.43845246578798,15.08688397775476,0.5648413196616699
-6.987343910834066,-5.352044488108085,-0.6145400194664418,-11.75859071844333,-17.42390379065439,4.330606566954327,-9.050665359473321,-3.334846212945723,-0.5542949843473894,4.979519632580373,11.55454687178936,-0.01712991876216634,3.428838027345437,2.657265671975191,7.380448515188999,-3.365212618686731,10.70777658640449,-2.33274787248551,0.5120697051140228,-3.004443165305131,-7.612199729767999,-3.403058488556657,13.29627869708137,-18.03145845253559,3.137324057755682,42.5503866094169,-1.325766653040033,-5.421796406260023,5.489795175152963,6.925479742234467,-5.824397934323363,7.330212018026948,0.1610622254254153,-22.41206227375228,-5.498683593474771,-7.889790473163779,-6.967117436675057
-5.134621517038751,3.279946332444752,8.706359242709722,-10.22260053241746,2.94512185088668,16.13390046456099,-12.08995167881388,-5.075589111533274,-5.595607873464447,4.613041047627515,4.44405915667305,-16.26840788395758,13.69362453123213,-2.294786948110437,16.42153758748792,8.102757627991947,-6.301455948160902,-0.3164640088130161,17.69932971923272,15.13291889724215,24.36788222412303,8.124227722762281,-2.942163188304154,-8.790356322800765,-0.09854115044508134,-1.325766653040033,49.60987018845091,8.654996342145033,-18.84806391802379,11.9578453707486,17.94821305669089,3.50741996147203,17.48784848418676,6.714899710712053,9.088533170963562,14.63218244516402,11.71892677727005
4.349973395793105,-7.926093590804131,18.69273430633375,10.41632561451532,1.43620622410655,-16.38288945128715,-6.332675657214119,-10.01628165152682,2.686727922667715,-2.194013558889677,-30.18218110174583,16.3775078945958,2.465301696937595,-3.120207223029835,1.933727670922322,8.658737224688258,10.18868582535199,6.410518844742005,-2.775754306685625,4.395027208925439,2.42095397848093,-13.36407219554455,-0.1775958761591502,-0.7681526419093034,-0.4936158972599988,-5.42179640626002,8.654996342145035,69.31048349878074,3.033005826558728,-4.015463662109146,4.38342795312882,-2.43657560793369,19.28510907667085,-10.82174591811312,-4.503016253518334,-8.200131893254454,11.02388060779891
-6.674876495091287,13.90006535422028,-0.7177335737839599,-6.210670243931074,-20.44971080253933,-18.37776043525443,12.10071817914474,-25.19425462947029,-12.79352915995636,-9.8364955600549,20.82346457689423,20.18374516291577,-12.35721470525844,2.222786126090981,-15.14255180867436,-5.881398638767396,33.77046419309726,-5.238814717484757,-5.182902992373211,-30.6778447411472,-19.49004626209415,8.257001187459347,33.25194170367894,-2.129841010891786,9.38769138066945,5.489795175152963,-18.84806391802379,3.033005826558729,72.99355416922023,-32.67285545204702,-8.649275576747831,-9.600084976006201,-3.216129790107336,-23.59569791700959,0.7573546003703951,-22.47451338629269,-0.3635304425159069
-34.22666880964836,-9.668169507963816,17.29559412938102,16.95549161426478,1.25396839421314,12.23554550028591,-11.59007865842287,43.80820975852019,16.24121076579956,13.55317844547032,-5.857773382868551,-14.02474246972572,32.75760528780399,-0.4357046929379474,12.60299508814139,-16.14133176635478,-31.42811285855302,0.3502614004061039,-0.1239235005815202,21.02837198873369,4.797393722328109,-28.85505429354622,11.35026123865625,5.333428294265438,7.898971286299839,6.925479742234467,11.9578453707486,-4.015463662109144,-32.67285545204702,103.0172921476431,11.91412958082936,3.201944746508913,15.94971326030603,15.50186305660406,20.83118394958402,8.142065304716372,-14.30555488385572
-15.84862065611111,31.70664950795321,12.22896887611927,-7.012660874199254,-7.779409203003663,-11.23484021369623,-12.18011387802173,-0.9772621929344235,-17.49010598979874,23.05137396757155,-11.7005243096187,-8.15420468182797,-8.472874624973297,4.335833431101316,1.590969178194724,8.035823463142226,-16.28277093800514,-0.556152641133041,25.17383401617276,1.644484917387582,20.57967696037268,7.235930480349738,17.83891412879753,3.620290383111943,-0.0880935483797762,-5.824397934323363,17.94821305669089,4.383427953128818,-8.649275576747835,11.91412958082936,69.93570963514384,-24.48531749490718,14.04926811993115,11.29785528562632,11.64059576692334,-0.09702625509507384,-25.03838773619231
7.434775838439127,-39.59888144160748,-5.679585697504811,-0.05292952260923028,10.7145898111241,0.7673419826700173,8.509456015762748,-2.945606820942753,-1.846066285001634,-11.9135065058996,25.86775322719049,-3.822618453097717,6.436567851339406,-8.592270669321326,3.138081911247567,-10.04357297726714,-1.812151145966691,-7.606541104193631,-8.580457711351896,1.198444208875127,0.8098192868336704,-3.746541067154636,-3.981522099437546,-11.3060608510432,-2.821943453241513,7.330212018026947,3.50741996147203,-2.436575607933693,-9.600084976006203,3.201944746508913,-24.48531749490718,55.38115935004276,4.136914626084296,0.8977927666697549,0.4210641883138196,19.71351573409562,21.51726244081769
-9.169658106544356,-1.871697723062926,3.068700272659712,-11.8627972538323,20.42525558169787,-34.00420057334198,-1.002274483320365,5.28176328985786,-12.15948646120675,11.65013867067004,9.595884592539429,-14.48769357744245,-10.87363429728314,9.991813302318537,2.878799648302169,16.52553994776181,-7.120823045442927,-5.980843668773902,1.734520583034357,3.649049809766621,3.519904801212193,10.93161160141451,0.8376101596156678,-11.19642439701931,21.35302093812563,0.161062225425415,17.48784848418676,19.28510907667085,-3.216129790107334,15.94971326030603,14.04926811993115,4.136914626084297,66.76510278336558,-2.482718182742288,3.320611130300296,-0.9479028189767196,19.34202073357707
-5.538537552799911,-4.8956449446837,-4.972106032656093,15.97987219846394,7.296716488228056,2.014844022073305,6.032678823951185,12.59843152441662,-17.95344750285357,-10.66134003166837,-4.925290798526774,-12.81152790251001,3.840653544518403,17.08878540804371,14.32203507607643,1.311697141918717,-9.687050515961571,-8.225312433205875,-19.18360499974044,14.61989176413072,15.50230373999498,-12.29584186273793,-5.494480926906804,6.692432361841533,-0.411320083561762,-22.41206227375228,6.714899710712053,-10.82174591811311,-23.59569791700959,15.50186305660406,11.29785528562632,0.8977927666697548,-2.482718182742289,67.20188093005621,-2.251076553382414,13.58679882607807,-12.67685872782081
-7.750991794602484,26.74791529000968,-0.6343666145760343,-6.176721545803368,1.342338958617979,9.337819300612912,7.276854194587722,15.3818683617538,-7.741934188672597,11.96096965279224,15.78024549948645,-15.74995413901093,18.9213279648014,-12.43076634244799,-15.48057733788062,-24.32956276008378,-7.417340852703966,3.825536546359055,17.24868386143588,-0.7365122308142501,-13.94802722911206,-0.5520111978378172,14.18173554901846,-1.731501376393803,14.43845246578798,-5.498683593474774,9.088533170963562,-4.503016253518334,0.7573546003703966,20.83118394958402,11.64059576692333,0.4210641883138183,3.320611130300295,-2.251076553382412,58.94809707602204,20.72829692068695,-22.18678024329155
-7.08317018680665,-6.37729189375173,-4.341471246967766,-3.787748355315744,5.930526317286114,2.428528898108778,-0.5605469720618775,27.2308571455839,-2.096231021071139,20.87984781577022,-0.3547870472148982,-12.67324316726776,21.48362921325583,-9.290956123784719,5.675694979934275,1.524995641141581,-10.78762737236061,-10.89001700584472,-9.103575411802167,-2.598648371727086,14.58550642521776,0.06128768803113809,-3.977467026391162,15.18172209098251,15.08688397775476,-7.889790473163781,14.63218244516402,-8.200131893254456,-22.47451338629268,8.142065304716372,-0.09702625509507397,19.71351573409562,-0.9479028189767198,13.58679882607807,20.72829692068695,75.5122973029075,2.666916859773769
6.521808277068629,-25.81270068222639,1.006204718414664,-3.021794451528427,21.80881454633283,-8.939039583034688,-6.909589564813477,-12.94788250470324,14.84752447447732,-26.36903384137111,15.6329147205138,-2.528368036902697,2.042577303010257,0.6607991783014114,3.993299084465225,5.627728567881084,1.536150165375646,8.432343770531444,11.59487056730231,-3.523160532780468,11.91582682062643,7.066763981136077,-16.87698054507816,2.90362655783742,0.5648413196616714,-6.967117436675055,11.71892677727005,11.02388060779891,-0.363530442515907,-14.30555488385572,-25.03838773619231,21.51726244081769,19.34202073357708,-12.67685872782081,-22.18678024329155,2.666916859773768,76.72558590641648
