68.9481297122786,20.40552015703907,1.799908885501629,16.30948464337989,5.507772194742271,11.14474248985035,1.072351168760986,23.6427644533754,24.74505739407767,-0.8224575630528229,31.65911356052414,-22.0755393838308,-5.215860813762744,-4.652009909666761,23.81675021958655,9.022999862784866,-12.34423963927094,-32.37572595405769,-9.890781373599701,-13.81197684045666,-3.486728797054184,15.70870567163023,-25.52919264294432,4.466823840460916,-1.463227181542599,13.08638829556208,4.865388331835894,39.73500126387074,27.02724312793149,4.38723283023009,-4.351370817534826,31.16992186910248,2.85985143712622,-1.181971243375234,0.1022403725774731,-10.63112025794955,10.06023368875547,10.02051858318588,-17.71645756938775,4.780388810510718,-4.910842959753937,15.37463282902596,28.45246535230463
20.40552015703906,97.66441034693011,11.63922868375591,-34.68738848285508,-19.4330788704098,-14.14749841553238,1.380243276829235,10.54798915881157,19.47124624386147,-7.942482758235322,4.565810431437964,-31.52329570787413,10.42604289767148,18.51307392954882,2.164724793035758,-4.888656577089708,9.6450802075945,6.425769981744969,-20.7966070709166,-40.3895566186163,-15.911829200707,1.847298639509617,-12.15765090207937,15.7440934173781,15.90132101665809,2.429393069877831,-15.73063823628147,12.57761884680356,10.77753734460747,15.86444097194043,1.656681152625611,0.4880790790723594,9.244019071948603,0.4455735477349455,4.096732697862437,-8.152030821178771,14.4269465152103,25.09341757549491,26.14452721785674,-22.22356981364466,9.683020210061777,4.927609354771821,-3.320940660998866
1.799908885501627,11.63922868375591,80.9691444932246,7.910696776884411,1.67393092468315,33.6605816018841,1.664434600057973,-12.14577843143219,9.633849597016885,25.66065134778868,-15.08873130014082,-2.460735286468786,1.798881574080537,36.26788932343145,27.49010616128597,-4.913888577778564,-10.67643268807157,-10.94413040902234,4.668905115832773,-1.164742620995091,-0.077558571418578,-18.69605292546393,-6.962313295142131,-41.95106053916781,-11.62172097276466,11.63632278826467,0.1482754428183496,-4.553535380392511,-6.032173277218861,4.71012284656126,40.87586515542863,-5.864275746245734,1.737865591090914,-1.114492909797216,-8.24848925948379,10.85273854028589,16.0518501688299,1.363935481564281,8.142211485858681,3.51245769357794,18.1736731972979,4.640680461928817,16.77454162721979
16.30948464337989,-34.68738848285508,7.910696776884411,83.81894982725689,-5.866639065470233,25.53208048021769,6.861609994115642,-1.988411999582667,-0.3724675783278969,14.63390163406661,20.10974333340234,-18.76325660574001,-22.47588546472301,-13.98490359735814,-3.195577299132457,1.959139974579041,-6.105130639588622,-41.28791536796228,4.470801606246635,1.00224810479056,-4.34013262358336,16.01921544868276,-8.843779396657533,-31.89248196598999,-11.20273264003574,9.181323312680622,22.62968646329107,2.225864904640857,-10.67859026261753,3.576656751326905,4.410048511698204,3.022584644238922,-2.486413144048655,-2.893919677781958,-0.4536188985491916,2.827849284451356,-10.707367870146,2.643521905615879,-34.74226745305671,6.995445789772763,7.862602383726465,5.760331543850625,15.56447258279547
5.50777219474227,-19.4330788704098,1.673930924683147,-5.866639065470237,95.29233844622625,23.98220749621515,4.809355781299452,26.85870343602241,15.32586252514836,-14.24160619519655,-4.097076598819289,18.26819775993369,-0.218149377582971,6.35094793717805,22.03634710170905,-0.2695385680232877,-29.92419394060015,-20.14479724589396,16.61441758714774,-4.276396424319397,21.2995876140156,-11.21055949501018,-10.43852876987649,14.10186555507224,-19.39101181354022,-0.8622513528085366,-18.49264285256992,12.11667493730749,-1.801801012703717,-26.55598197802792,7.506115542081937,19.37617032926391,-10.9157470786648,-14.9020366191696,-5.615631842019456,1.58385842058053,8.857181206682119,15.97768121084149,4.182796901452305,-10.73439857362333,-6.192347694157155,11.96222751355038,0.2617247584701232
11.14474248985035,-14.14749841553238,33.6605816018841,25.53208048021769,23.98220749621515,132.0176979720883,12.11172001389344,-7.60026618704748,-4.600154862636075,20.0366726082214,12.72829386032829,4.90417990461507,-24.4955909393305,31.12320996517802,9.287364524978006,12.42874134258139,-2.031264722846712,10.44672954474249,28.66392887739603,0.04487561216721423,11.500986960777,-5.467472933629535,-27.56086017011155,-24.80629065183765,-41.20556664573414,20.5644645373776,11.26410975196982,26.70707022335251,6.005476622524595,20.44486512716478,25.45129562885086,46.87549424852688,-8.571710375122739,-16.48935656701298,-18.89490023785483,-5.491688716427801,14.94865176740323,-8.824785354505346,-14.05817181425927,-4.870236817533839,10.57096356771985,35.30875164591728,26.8776842805732
1.072351168760985,1.380243276829237,1.664434600057972,6.861609994115638,4.809355781299454,12.11172001389344,62.29587735159052,0.9355398913604033,7.883029653082879,8.012205650217993,-26.12354422542244,-5.870285408967437,5.540440580673601,6.448382753078945,5.225254022186742,34.03065326344345,-5.225766234228601,11.71438925058797,15.86300062087601,-1.205736709448645,-8.17202872381956,37.55793930854954,-24.97831469265637,27.09707862052166,-12.25682475110813,-5.99842290043228,-7.009768714947908,-0.2117737260032163,11.6255365333797,1.174551768358937,1.411280836676071,27.03362604974622,-8.237319318424932,-18.30851280968549,12.21409507232124,-19.05358310707859,2.955396504149693,-3.627677660259462,5.578590448294863,-26.08510404783987,-2.127884043138249,26.81207522291669,17.75459335288275
23.6427644533754,10.54798915881156,-12.1457784314322,-1.988411999582663,26.85870343602241,-7.600266187047481,0.9355398913604014,102.0725762143032,0.5319631344828532,-12.00005018073221,2.481148658086126,8.88361440493482,12.7460803659114,3.742305525006147,3.437670322949644,19.53875093859644,-9.742115783455585,-13.52705178060762,6.966436013522212,-17.88094826228222,-10.09021332116451,19.94098983956334,-25.79276621768874,34.73883407220382,-11.57121965577737,-19.03175566603273,7.13744167066886,5.759193678847915,7.18706938782932,-1.082295670574608,-16.29336964523898,4.336629060651435,-24.47504956675012,3.849116582283759,-5.015433846258505,-21.10060293177067,15.2027333104838,15.85588671637376,3.16039455366829,2.892950151667617,-4.780212039746626,3.480954653973213,-4.887015543728938
24.74505739407767,19.47124624386147,9.633849597016887,-0.3724675783278963,15.32586252514836,-4.600154862636074,7.883029653082879,0.531963134482854,100.1515612245113,-13.71016030478435,-22.97925610763905,-2.771225030739846,-2.04272676808116,6.366717914930951,5.922735110021443,-37.02429316112677,-1.954155353227482,-15.46374739583253,-12.48361008390288,3.823731890690058,-4.724437457726252,-3.647320926932403,-23.09679179785406,14.91852663363504,2.083059749700866,-0.6243167426716332,-30.16335864963711,-1.95587875520786,19.97849217914608,-14.82189695205102,0.6199262272118768,16.99054005542044,6.655591364021959,-5.170382639270517,18.45620439195645,-21.27935792085317,-19.04082297120169,6.867098573491257,-25.19022005880569,13.62517848386847,-28.72379675032482,-12.29863045010468,-4.410309129248543
-0.8224575630528224,-7.94248275823532,25.66065134778868,14.63390163406661,-14.24160619519655,20.03667260822141,8.012205650217995,-12.00005018073221,-13.71016030478435,70.41386882585503,-4.429489797988416,2.568090256431465,-4.473551919803046,2.952567132706752,-22.34456558608053,17.13482721757999,5.826749988072274,-21.66731441711081,15.52033874388276,-16.57142199734913,-10.09693468643821,11.66624932863808,-1.284128193862943,-24.93731763174166,-2.870720677044825,10.56153228766689,1.211111786665716,6.960869448600053,-16.1855184670984,16.48187040843518,4.776511531445701,-13.44141355993507,3.665562850117301,-8.215598709523208,-1.019292678893094,28.49811095831967,15.94007054634575,-10.60677613533542,-16.49065613265949,1.520502916314897,10.86852645057841,1.132241984968627,2.659100479551819
31.65911356052414,4.565810431437964,-15.08873130014082,20.10974333340234,-4.097076598819289,12.72829386032829,-26.12354422542244,2.481148658086124,-22.97925610763904,-4.429489797988418,132.4101677201951,-26.22349661783291,-15.08956635550982,-22.31858725286632,-5.714339033737406,-19.11639019127148,-19.21273765176855,-21.87180122448111,-4.28802578783859,-8.20995518564609,16.33833106334759,-2.487530599620644,19.691323181544,-14.5099543855884,21.7590088048216,33.5777395446969,-3.591281704167467,17.40740668567729,3.118431864817104,4.592389768132574,-15.39780369476434,6.231320206456017,4.654688945047259,-2.736673289707611,9.173604779260414,8.261212349047751,17.18285794910037,-4.963287434990057,0.8759024430521264,0.3030541864452868,-36.9892081192721,-1.16341744162392,3.409305112160603
-22.0755393838308,-31.52329570787413,-2.460735286468786,-18.76325660574001,18.26819775993369,4.904179904615069,-5.870285408967437,8.883614404934818,-2.771225030739846,2.568090256431465,-26.22349661783291,86.93932383288468,-2.525437079882472,19.11852813388144,-10.75318513054477,-10.31959517711128,-0.2633935400125311,11.50580992720574,16.03593750142876,30.10828745480183,6.249317933364859,-7.496239544305315,-11.25219576542071,0.2465857381026063,-23.11985624180611,-10.9710734749819,-3.182777940529265,-22.92187286733528,10.20689329323784,-3.538576644266657,-16.20417334194982,-6.497315069560081,-26.569238741502,-7.776205216490879,2.756049092382674,-2.123574359644968,5.346739534552841,-12.05681163415787,-9.31543210817332,15.81186408953352,-13.43148346451489,2.894687888180012,-35.08906685720849
-5.215860813762741,10.42604289767148,1.798881574080535,-22.47588546472301,-0.2181493775829708,-24.49559093933051,5.5404405806736,12.7460803659114,-2.04272676808116,-4.473551919803044,-15.08956635550981,-2.525437079882469,78.90241499653654,14.18829775320705,27.76304156615157,24.84798170904228,-1.88970105721788,-15.1674088341706,-13.27108062215429,-14.90548525599583,-2.786337788608332,-3.19582320511138,-2.54167446122829,13.75199682403956,26.70922370852713,-15.15949506246474,-8.332074415409917,4.125871760541,18.49516233553605,2.367273820175329,22.2557803600724,4.124813631704994,-2.706519442738191,-9.60527983392136,0.305835903658529,-5.487647145478795,16.40810447320422,2.808993891987627,10.98477791319318,-3.146744580980055,-3.593611501056479,-16.24683132480608,-2.559272753701745
-4.652009909666761,18.51307392954882,36.26788932343145,-13.98490359735815,6.350947937178049,31.12320996517801,6.448382753078946,3.742305525006146,6.366717914930952,2.952567132706752,-22.31858725286633,19.11852813388144,14.18829775320705,75.11372047561679,14.45311737974054,22.16972056558259,-2.436835280748415,29.56070737705591,6.223818183190988,-0.04608129623313403,2.931335248486911,-20.78763615944263,-7.938838348746684,-12.03847065924557,-4.27928956832489,6.576104511905626,1.483582933886966,-5.782508818533764,-0.4092601202693114,11.78914059038803,41.33167011885837,12.11536916341352,2.852819246750933,-19.78001105126372,0.883962890364927,-4.975402593296078,22.70899525306698,0.6039007572415855,16.40013654999316,-7.364022739391758,0.3474274090638849,5.976392568528208,-4.721187875497153
23.81675021958654,2.16472479303576,27.49010616128598,-3.195577299132459,22.03634710170905,9.287364524977999,5.225254022186742,3.437670322949644,5.922735110021443,-22.34456558608053,-5.714339033737408,-10.75318513054477,27.76304156615158,14.45311737974054,111.5054870535951,23.88883365086634,-30.81601618681306,-2.843100051830346,20.08136616368605,10.44741778250627,11.7961271599735,-15.50391176895019,-23.75521550955493,-10.21100096805648,-4.12543626419767,1.3874650737489,-15.61309382273004,13.55049892460204,19.6528059831578,-11.11567134502941,25.23926656224012,58.97026985220675,14.56004882243924,-1.878048546133844,-20.46545984454397,-26.00912412093928,-3.608076398041422,8.114801181369092,7.685490954121304,11.11172890647711,-3.166827392526442,9.870914216122491,27.79957639220439
9.022999862784864,-4.888656577089709,-4.913888577778564,1.959139974579045,-0.2695385680232913,12.42874134258139,34.03065326344345,19.53875093859645,-37.02429316112677,17.13482721757999,-19.11639019127148,-10.31959517711128,24.84798170904228,22.16972056558259,23.88883365086634,127.72748678017,-5.829733665033924,6.201049184914271,1.877227252622888,-14.78699379625052,-18.47835779093012,38.43450351356586,-22.14909855553302,5.003786067147126,-16.14341187804745,21.98508628028116,12.49091533021369,33.48885093807431,-4.848833826025498,24.30227462445094,-1.82320097324701,31.49511193728902,15.34091477743168,-19.67417909357257,-16.2667455528916,0.4702177089393648,15.4701728906945,1.282877532848435,13.86393182308849,-42.35558333990125,1.183081145117046,20.82946535486852,31.61539114616451
-12.34423963927094,9.645080207594502,-10.67643268807157,-6.105130639588624,-29.92419394060015,-2.031264722846713,-5.225766234228599,-9.742115783455585,-1.95415535322748,5.826749988072274,-19.21273765176855,-0.2633935400125351,-1.889701057217878,-2.436835280748415,-30.81601618681306,-5.829733665033925,82.99766502917717,-4.892273281880152,-9.023204924332715,11.26334738140151,-30.26918360049148,3.787769096918335,6.64396183785785,9.014054172627121,-1.21079442059336,3.817211196380524,12.9658904322178,-5.524781410618971,-3.388009542068684,-3.696744984525416,-3.138186745362029,-25.95459131971203,-8.125106798923987,27.26135656828092,-0.8885636125368349,13.52535233782369,-9.215649497072993,-17.44198629056265,-13.03228673463066,5.314872008103199,-0.8279942402982077,-5.476868854218762,-0.9352501469419021
-32.37572595405769,6.425769981744969,-10.94413040902234,-41.28791536796228,-20.14479724589396,10.44672954474249,11.71438925058797,-13.52705178060762,-15.46374739583253,-21.66731441711081,-21.87180122448111,11.50580992720574,-15.1674088341706,29.56070737705591,-2.84310005183035,6.201049184914275,-4.892273281880152,129.792527527631,31.87556530723624,6.862906221468499,7.725088581456062,-8.415989181860285,8.931808766677147,20.64120000214671,6.919136001920294,-6.277574704215621,-10.71213930477148,-24.75245946785343,-12.32120136783728,-1.618892846270612,11.82102542380388,35.30315042114685,15.98521510160521,-11.24205123739404,-12.222266646799,-3.984872406300531,-13.77204879147673,-3.687114420063314,39.49810780062979,-4.303530593789164,-16.82476882843644,9.033615395190852,-4.385640689108068
-9.890781373599703,-20.7966070709166,4.668905115832771,4.470801606246633,16.61441758714773,28.66392887739603,15.86300062087601,6.96643601352221,-12.48361008390288,15.52033874388276,-4.288025787838593,16.03593750142876,-13.27108062215429,6.223818183190987,20.08136616368605,1.877227252622887,-9.023204924332715,31.87556530723624,104.3535644208662,17.81895755634975,-5.060464521323724,-2.737301698451789,-14.81119552158154,-9.956403944831964,18.3880046915545,1.175667620229662,-16.89285092939896,-6.642912866548962,-12.58065217201964,-1.693625690962619,9.112100823055075,9.234876462036548,-1.203560149553616,-12.58810390835061,-24.77435824433491,-0.5773810530698308,2.152182244806334,-0.7780110736274234,7.252600460668498,25.15425882375219,-15.88991554784858,23.23664262014752,-3.920411048850923
-13.81197684045667,-40.38955661861629,-1.164742620995091,1.00224810479056,-4.276396424319397,0.04487561216721419,-1.205736709448646,-17.88094826228223,3.823731890690057,-16.57142199734913,-8.209955185646091,30.10828745480183,-14.90548525599583,-0.04608129623313207,10.44741778250628,-14.78699379625052,11.26334738140151,6.862906221468499,17.81895755634975,90.93609326481884,10.56844018989407,-1.028619871395408,11.16560862625393,-3.15902431695063,-3.687303530395095,3.567893613323545,3.256441352391025,-22.47888414081654,14.21974068753929,-13.71187976410484,17.42092258286971,-11.63037165797964,-19.44351631091453,14.51821860366477,-1.407701226347513,-0.1843029817082432,-22.86577431116796,-29.46481090442018,-20.02214927857167,18.86554687667185,-13.44065640519256,2.775165950424461,3.116610553012377
-3.486728797054185,-15.911829200707,-0.07755857141857933,-4.340132623583362,21.2995876140156,11.50098696077701,-8.17202872381956,-10.09021332116451,-4.724437457726249,-10.09693468643821,16.33833106334758,6.249317933364859,-2.786337788608332,2.93133524848691,11.7961271599735,-18.47835779093012,-30.26918360049147,7.725088581456064,-5.060464521323724,10.56844018989407,60.44621405153993,-23.2485523449192,16.9569032121883,-1.505364713308953,2.326817559308042,-7.102726246891994,-3.040917574557346,10.50311714154926,4.297680105518363,-14.91380234050363,-2.895273195503395,16.05030472888986,7.709309182534955,1.731792349162292,0.3734307436676793,-12.10506465141099,3.193036477392951,-10.43710450762235,7.342723392248657,-7.083077049218004,-6.95686692991961,-1.159831432052868,-6.084088977543823
15.70870567163023,1.847298639509616,-18.69605292546393,16.01921544868276,-11.21055949501018,-5.467472933629539,37.55793930854955,19.94098983956334,-3.647320926932399,11.66624932863808,-2.487530599620644,-7.496239544305315,-3.195823205111379,-20.78763615944262,-15.50391176895019,38.43450351356586,3.787769096918335,-8.415989181860285,-2.737301698451787,-1.028619871395409,-23.2485523449192,116.1641430099524,-27.56093407314109,46.87449790975686,-21.23262990491394,15.49080077984881,9.978010878499017,20.41236530914839,10.49411075623348,24.46016898209661,-41.96509472360943,11.17996618643921,-17.70403619493489,3.662848891021899,1.0627992102202,6.533711636412736,-9.868044637214151,2.106425995957251,-40.0912894765332,-30.64507406841612,-3.710437488806891,9.915565328515502,9.045828962888143
-25.52919264294432,-12.15765090207937,-6.962313295142131,-8.843779396657533,-10.4385287698765,-27.56086017011155,-24.97831469265637,-25.79276621768874,-23.09679179785406,-1.284128193862942,19.691323181544,-11.25219576542072,-2.54167446122829,-7.938838348746684,-23.75521550955493,-22.14909855553302,6.643961837857849,8.931808766677149,-14.81119552158154,11.16560862625393,16.95690321218831,-27.56093407314109,103.5418080145108,-13.28357990642391,20.48921178700681,3.324501552214254,-8.325454118502398,8.8752022018798,-26.09913081220539,-4.606737863492976,6.969814424647214,-54.118949729127,6.57551805274684,12.55642546183613,20.27762579389007,26.95352144240503,-8.205837196317031,-15.73532271631711,19.64863309636553,28.98687605233815,-1.142411783380743,-23.76168985866293,-12.28455675001082
4.466823840460915,15.7440934173781,-41.95106053916781,-31.89248196598999,14.10186555507223,-24.80629065183765,27.09707862052166,34.73883407220381,14.91852663363504,-24.93731763174166,-14.5099543855884,0.2465857381026056,13.75199682403956,-12.03847065924557,-10.21100096805648,5.003786067147129,9.014054172627121,20.64120000214671,-9.956403944831965,-3.159024316950631,-1.505364713308953,46.87449790975686,-13.28357990642391,112.7344342912398,-2.00848198909513,-14.71384592610031,-9.64952277616919,18.72382042218748,6.631569103713501,8.19754866873761,-34.39273890657108,11.59388344950115,-7.692537383844196,0.07588021150827344,15.45270130655403,-21.23786013174201,-14.69195233384436,7.109209274284308,-13.19417423028425,-15.63618572315486,-2.762707742540621,6.69587736347116,22.7399099506583
-1.463227181542597,15.9013210166581,-11.62172097276466,-11.20273264003574,-19.39101181354022,-41.20556664573414,-12.25682475110813,-11.57121965577737,2.083059749700867,-2.870720677044824,21.7590088048216,-23.11985624180611,26.70922370852713,-4.279289568324892,-4.125436264197671,-16.14341187804745,-1.210794420593361,6.919136001920295,18.3880046915545,-3.687303530395095,2.32681755930804,-21.23262990491394,20.48921178700681,-2.008481989095129,88.39887768490523,12.98769295707644,-26.94394864919297,7.156746997431575,-1.44995301520846,2.960977049038384,-1.819565306869916,-15.98507771081845,15.18561081642784,-5.934999272754808,-9.584311761669374,21.54651474683454,-11.85636111790073,9.854422550676182,6.080447904435282,19.1962753090422,-10.84682352260045,-21.22619069220627,-12.65690424563984
13.08638829556207,2.429393069877833,11.63632278826467,9.181323312680622,-0.8622513528085352,20.5644645373776,-5.998422900432279,-19.03175566603273,-0.6243167426716361,10.56153228766689,33.5777395446969,-10.9710734749819,-15.15949506246473,6.576104511905626,1.3874650737489,21.98508628028116,3.817211196380525,-6.277574704215623,1.175667620229661,3.567893613323544,-7.102726246891994,15.49080077984882,3.324501552214254,-14.71384592610031,12.98769295707644,90.92175935343835,-4.143406437688179,28.47798459655417,-14.55335554674491,24.4314571877783,-22.702165221993,4.668981513497262,3.131099207984803,-26.181823809608,-0.05807209226624084,38.95837014626402,-17.9220173212985,-4.43547096641255,-9.403595484931104,-7.462379862003157,-24.65598102126111,5.874364047987979,18.36549327925391
4.865388331835892,-15.73063823628147,0.1482754428183534,22.62968646329107,-18.49264285256992,11.26410975196982,-7.00976871494791,7.137441670668858,-30.16335864963711,1.211111786665716,-3.591281704167464,-3.182777940529266,-8.332074415409917,1.483582933886967,-15.61309382273004,12.49091533021369,12.9658904322178,-10.71213930477149,-16.89285092939896,3.256441352391025,-3.040917574557346,9.978010878499019,-8.3254541185024,-9.64952277616919,-26.94394864919297,-4.143406437688179,73.12409976618115,-16.3716131545801,-6.97385707451405,17.16168877817621,3.26008454485704,-13.90706374715627,13.86223228031167,18.36333693380951,4.081581816891833,-8.146703090110579,4.488513739334361,-18.54609532532391,1.619678249042648,-9.965193877611529,23.42940930319742,0.8685935339365743,13.60823252035782
39.73500126387074,12.57761884680356,-4.553535380392511,2.225864904640855,12.11667493730749,26.7070702233525,-0.2117737260032145,5.759193678847917,-1.955878755207858,6.960869448600056,17.40740668567729,-22.92187286733528,4.125871760541,-5.782508818533766,13.55049892460204,33.48885093807431,-5.524781410618971,-24.75245946785343,-6.642912866548961,-22.47888414081655,10.50311714154926,20.41236530914838,8.8752022018798,18.72382042218747,7.156746997431576,28.47798459655417,-16.3716131545801,117.3390221796038,4.645591836557329,25.73255701491621,-40.00643740669472,25.31878534951101,-7.779027717504883,-7.303579875662764,-11.03242276271527,2.052822243694128,11.48827451856505,17.70617559073556,-25.48470699932227,-4.592158667225288,21.76297936701257,17.26598583334382,34.83222011812042
27.02724312793149,10.77753734460747,-6.032173277218862,-10.67859026261753,-1.801801012703719,6.005476622524595,11.62553653337971,7.18706938782932,19.97849217914608,-16.1855184670984,3.118431864817103,10.20689329323784,18.49516233553605,-0.4092601202693109,19.6528059831578,-4.848833826025498,-3.388009542068682,-12.32120136783728,-12.58065217201964,14.21974068753929,4.297680105518364,10.49411075623348,-26.09913081220539,6.631569103713502,-1.44995301520846,-14.55335554674491,-6.973857074514052,4.645591836557328,59.38450054459413,-15.16287738824432,14.1435504681374,21.86595166045807,-25.41084038892188,1.761413456271584,5.007443993382152,-35.3381130465464,4.291539854860886,-9.857877513709495,-16.37320895351472,-2.934954794765051,-4.050499410543559,0.9175685700585617,-9.914383742778902
4.387232830230089,15.86444097194043,4.710122846561263,3.576656751326907,-26.55598197802792,20.44486512716478,1.174551768358937,-1.082295670574611,-14.82189695205103,16.48187040843518,4.592389768132576,-3.538576644266658,2.367273820175328,11.78914059038804,-11.11567134502941,24.30227462445094,-3.69674498452542,-1.618892846270612,-1.693625690962621,-13.71187976410485,-14.91380234050363,24.46016898209661,-4.606737863492974,8.197548668737605,2.960977049038385,24.4314571877783,17.16168877817621,25.7325570149162,-15.16287738824432,79.48516229053634,-23.41953280999301,-18.93392676337174,13.37423373996213,-19.47002540134619,5.797282015783555,-1.985598765960897,14.6443138841878,9.45273864078632,-12.20558258749189,9.211237083167038,15.35306672884563,6.588472232530826,24.15594429007767
-4.351370817534827,1.656681152625612,40.87586515542863,4.4100485116982,7.506115542081941,25.45129562885087,1.411280836676069,-16.29336964523898,0.6199262272118731,4.7765115314457,-15.39780369476434,-16.20417334194981,22.2557803600724,41.33167011885837,25.23926656224011,-1.823200973247012,-3.138186745362034,11.82102542380388,9.112100823055076,17.42092258286971,-2.895273195503393,-41.96509472360943,6.969814424647215,-34.39273890657108,-1.819565306869915,-22.702165221993,3.260084544857039,-40.00643740669473,14.1435504681374,-23.41953280999301,155.0380718072514,-17.73614749849435,9.454252926044592,-10.76024713386587,-2.842460094129714,-6.074431719101002,17.59106762840814,2.120086839767319,6.318591802006879,14.67342664630255,7.997627307476547,-10.94067032575576,16.52649331491677
31.16992186910248,0.4880790790723595,-5.864275746245735,3.022584644238923,19.3761703292639,46.87549424852688,27.03362604974622,4.336629060651438,16.99054005542044,-13.44141355993507,6.231320206456015,-6.497315069560081,4.124813631704991,12.11536916341351,58.97026985220675,31.49511193728902,-25.95459131971203,35.30315042114685,9.234876462036546,-11.63037165797964,16.05030472888986,11.17996618643921,-54.118949729127,11.59388344950115,-15.98507771081845,4.668981513497265,-13.90706374715627,25.31878534951101,21.86595166045807,-18.93392676337174,-17.73614749849435,133.5912727546381,3.9647173463302,-15.48009556132545,-18.14957519295189,-15.69228734128092,-5.85820676941614,2.699664800868233,2.686681371610959,-25.26307835082067,-18.35521800552802,32.04839157782198,15.60661698311838
2.85985143712622,9.244019071948607,1.737865591090914,-2.486413144048657,-10.9157470786648,-8.571710375122739,-8.237319318424932,-24.47504956675012,6.655591364021959,3.665562850117303,4.654688945047254,-26.56923874150199,-2.70651944273819,2.852819246750936,14.56004882243924,15.34091477743168,-8.125106798923985,15.98521510160522,-1.203560149553617,-19.44351631091453,7.709309182534955,-17.70403619493489,6.575518052746839,-7.692537383844198,15.18561081642784,3.131099207984803,13.86223228031167,-7.779027717504885,-25.41084038892188,13.37423373996213,9.454252926044594,3.964717346330203,89.266377298648,16.22352461427834,-4.736664862152197,-1.426939646762256,-0.8434905314800919,-3.355138651963669,23.90358790857346,-5.775250732945278,-2.985337873209452,-17.52260486472023,27.28365250164382
-1.181971243375232,0.4455735477349457,-1.114492909797216,-2.893919677781956,-14.9020366191696,-16.48935656701298,-18.30851280968549,3.849116582283757,-5.170382639270519,-8.215598709523208,-2.736673289707614,-7.776205216490879,-9.605279833921358,-19.78001105126372,-1.878048546133844,-19.67417909357257,27.26135656828092,-11.24205123739404,-12.5881039083506,14.51821860366477,1.73179234916229,3.6628488910219,12.55642546183613,0.07588021150827465,-5.934999272754806,-26.18182380960799,18.36333693380951,-7.303579875662765,1.761413456271587,-19.47002540134619,-10.76024713386586,-15.48009556132545,16.22352461427834,70.28421856773546,-13.84646734147229,4.567856252692843,-11.83062914606928,-19.07102384275898,-2.496207415920814,-6.600983024552659,25.12434213045647,-21.82060294751993,5.759008110903263
0.1022403725774739,4.096732697862439,-8.24848925948379,-0.4536188985491889,-5.615631842019456,-18.89490023785483,12.21409507232124,-5.015433846258508,18.45620439195645,-1.019292678893094,9.173604779260414,2.756049092382671,0.305835903658529,0.8839628903649287,-20.46545984454397,-16.2667455528916,-0.8885636125368337,-12.222266646799,-24.77435824433491,-1.407701226347516,0.37343074366768,1.062799210220201,20.27762579389007,15.45270130655403,-9.584311761669374,-0.05807209226624102,4.081581816891831,-11.03242276271527,5.007443993382152,5.797282015783555,-2.842460094129714,-18.1495751929519,-4.736664862152195,-13.84646734147229,55.02527429488566,-26.05600580400337,1.173256379301384,-26.68964342555065,-0.9855848398460318,6.213143644793868,-12.14217983437754,-5.405693728787628,-4.593782699703123
-10.63112025794955,-8.152030821178773,10.85273854028589,2.827849284451357,1.583858420580529,-5.491688716427801,-19.05358310707859,-21.10060293177067,-21.27935792085316,28.49811095831968,8.261212349047751,-2.123574359644964,-5.487647145478798,-4.975402593296078,-26.00912412093928,0.4702177089393674,13.52535233782369,-3.984872406300532,-0.5773810530698306,-0.184302981708245,-12.10506465141099,6.533711636412736,26.95352144240503,-21.23786013174201,21.54651474683454,38.95837014626402,-8.146703090110579,2.052822243694127,-35.33811304654641,-1.985598765960899,-6.074431719101002,-15.69228734128092,-1.426939646762256,4.567856252692843,-26.05600580400337,107.1813496288149,-18.81848202597875,17.66759712054127,-7.111130695643597,-3.769395278494909,-0.3195418859424503,1.993185253036566,3.274751451444814
10.06023368875548,14.4269465152103,16.0518501688299,-10.707367870146,8.857181206682119,14.94865176740323,2.955396504149692,15.2027333104838,-19.04082297120169,15.94007054634575,17.18285794910037,5.346739534552837,16.40810447320422,22.70899525306698,-3.608076398041423,15.4701728906945,-9.215649497072993,-13.77204879147672,2.152182244806336,-22.86577431116797,3.193036477392951,-9.868044637214155,-8.205837196317034,-14.69195233384436,-11.85636111790072,-17.9220173212985,4.488513739334363,11.48827451856505,4.291539854860887,14.6443138841878,17.59106762840815,-5.858206769416141,-0.8434905314800919,-11.83062914606928,1.173256379301383,-18.81848202597875,68.78707009663654,6.527575803084766,24.02752207421156,-11.06431411321793,4.36299851775376,14.8207080649658,5.270981010643288
10.02051858318588,25.09341757549491,1.36393548156428,2.64352190561588,15.97768121084149,-8.824785354505346,-3.627677660259462,15.85588671637376,6.867098573491255,-10.60677613533542,-4.963287434990054,-12.05681163415787,2.808993891987627,0.6039007572415881,8.114801181369096,1.282877532848436,-17.44198629056264,-3.687114420063312,-0.7780110736274238,-29.46481090442018,-10.43710450762235,2.106425995957252,-15.73532271631711,7.109209274284306,9.854422550676182,-4.43547096641255,-18.54609532532391,17.70617559073555,-9.857877513709495,9.45273864078632,2.120086839767319,2.699664800868233,-3.355138651963669,-19.07102384275898,-26.68964342555065,17.66759712054127,6.527575803084767,68.32255524700321,0.912639201329065,-2.166539122954089,8.683554446653092,7.123663789088896,1.205088375388413
-17.71645756938775,26.14452721785674,8.142211485858679,-34.74226745305671,4.182796901452306,-14.05817181425926,5.578590448294862,3.160394553668287,-25.19022005880569,-16.49065613265949,0.8759024430521261,-9.315432108173319,10.98477791319317,16.40013654999316,7.685490954121303,13.86393182308849,-13.03228673463066,39.4981078006298,7.252600460668498,-20.02214927857166,7.342723392248656,-40.0912894765332,19.64863309636553,-13.19417423028425,6.080447904435283,-9.403595484931106,1.619678249042648,-25.48470699932227,-16.37320895351472,-12.20558258749189,6.318591802006883,2.686681371610959,23.90358790857346,-2.496207415920813,-0.9855848398460318,-7.111130695643599,24.02752207421156,0.9126392013290635,87.01702892285444,-19.6939367416641,-3.820302470699197,10.14139996106157,-8.182489149145979
4.780388810510718,-22.22356981364467,3.512457693577939,6.995445789772766,-10.73439857362334,-4.87023681753384,-26.08510404783987,2.892950151667617,13.62517848386847,1.520502916314897,0.303054186445289,15.81186408953352,-3.146744580980056,-7.36402273939176,11.11172890647712,-42.35558333990126,5.3148720081032,-4.303530593789164,25.15425882375219,18.86554687667185,-7.083077049218002,-30.64507406841612,28.98687605233816,-15.63618572315486,19.1962753090422,-7.462379862003157,-9.965193877611528,-4.592158667225288,-2.934954794765052,9.211237083167036,14.67342664630255,-25.26307835082067,-5.775250732945278,-6.600983024552657,6.213143644793869,-3.769395278494908,-11.06431411321793,-2.166539122954089,-19.6939367416641,82.65601257956826,-14.42597284139091,-7.074319732814145,-9.305465808939548
-4.910842959753938,9.683020210061779,18.17367319729791,7.862602383726466,-6.192347694157153,10.57096356771985,-2.127884043138251,-4.780212039746627,-28.72379675032482,10.86852645057841,-36.98920811927209,-13.4314834645149,-3.593611501056479,0.3474274090638847,-3.166827392526444,1.183081145117044,-0.8279942402982092,-16.82476882843644,-15.88991554784858,-13.44065640519256,-6.95686692991961,-3.710437488806894,-1.142411783380743,-2.762707742540623,-10.84682352260044,-24.65598102126111,23.42940930319743,21.76297936701257,-4.050499410543559,15.35306672884563,7.997627307476545,-18.35521800552802,-2.985337873209454,25.12434213045647,-12.14217983437754,-0.3195418859424484,4.362998517753761,8.683554446653094,-3.820302470699197,-14.42597284139091,85.84089311092649,1.725565382198378,21.14236289328619
15.37463282902595,4.927609354771821,4.640680461928817,5.760331543850627,11.96222751355038,35.30875164591728,26.81207522291669,3.480954653973213,-12.29863045010468,1.132241984968628,-1.163417441623918,2.894687888180011,-16.24683132480607,5.97639256852821,9.870914216122491,20.82946535486852,-5.476868854218758,9.033615395190854,23.23664262014752,2.77516595042446,-1.159831432052867,9.915565328515493,-23.76168985866293,6.695877363471161,-21.22619069220627,5.874364047987981,0.8685935339365742,17.26598583334382,0.9175685700585636,6.588472232530826,-10.94067032575576,32.04839157782198,-17.52260486472023,-21.82060294751994,-5.405693728787629,1.993185253036568,14.8207080649658,7.123663789088897,10.14139996106157,-7.074319732814143,1.725565382198377,60.43889668678205,24.55038618737553
28.45246535230463,-3.320940660998863,16.77454162721979,15.56447258279547,0.2617247584701283,26.87768428057318,17.75459335288275,-4.887015543728938,-4.410309129248541,2.659100479551819,3.409305112160599,-35.08906685720848,-2.559272753701751,-4.721187875497152,27.79957639220439,31.61539114616451,-0.9352501469419024,-4.385640689108065,-3.920411048850928,3.11661055301237,-6.084088977543822,9.045828962888134,-12.28455675001082,22.73990995065831,-12.65690424563983,18.36549327925391,13.60823252035782,34.83222011812042,-9.914383742778904,24.15594429007766,16.52649331491677,15.60661698311839,27.28365250164382,5.759008110903263,-4.593782699703127,3.274751451444812,5.270981010643285,1.205088375388413,-8.182489149145979,-9.305465808939546,21.14236289328619,24.55038618737553,98.85753405611233
