69.84008701093738,17.61883227681529,0.897102645076343,35.79084741147787,-2.751568632218009,23.96314876163731,6.7154413535164,21.59186075333479,-7.594848881155849,-6.641137291508246,-21.35132412476979,-21.06253113692512,-3.483677116747996,0.6330893629858018,-19.01757973395412,22.76123790435323,26.33923453615568,-15.54987902470859,-8.727191439430227,-9.884055546263921,12.97458605244785,11.95723266634826,-18.7974801234264,23.83131567970594,-12.18208186975519,-0.8506737135352369,2.695667145946957,-22.43703949005932,-12.25523878963281,-18.1803191413444,-14.66313594174038,6.860895434441748,-5.317705390503683,17.31014391393195,25.04596343106724,14.37545135098279,4.28332629752953,-6.31498886581426,7.795673220709455,-8.179943247996324,0.9547481286082327,-4.130593354731156,-19.52034587115599,15.5901220104488,-6.227326886569982
17.61883227681529,72.01783373997762,-5.25704217846081,5.03105950822315,-8.256968024332703,10.80438437861977,-6.769382726866953,-1.939321272374299,4.666203511718659,19.550778406335,12.30757839090136,1.004317189235065,14.72777073765237,22.23108541078815,-4.983192715501561,17.17647113142002,17.54860310829498,11.22116499585806,2.047700134388045,-19.11436084716696,-21.84412756789299,28.37889451178226,-3.108905938888169,-13.0434537877711,8.942431965171865,-7.857102810596047,5.847480026130014,6.262389012286966,8.48536711529932,-17.29244194044049,-12.20650318762067,33.35353662802281,25.90088759355204,-24.90143580512381,8.66819082181893,-1.54861248583203,25.84303593711565,-3.137866541530371,-19.19122692963864,-7.523643477200598,1.146250977529784,-11.66665879955233,9.509618721202813,4.037049669539985,5.569037881762259
0.8971026450763452,-5.25704217846081,71.88746847780205,5.752381026005557,7.191491489667783,15.55379758694391,-7.215399153563881,1.623608197908311,-1.866498040098463,-8.673330063466732,-1.635342393588002,1.247833254806973,-22.78484818061861,20.07974292874466,-11.84651591312574,-7.408960369978254,-8.736143016985753,-2.196490252818804,-16.15840104908673,0.9783078288376519,-1.752534494040582,0.4058823708140313,4.30989073611856,11.83868765588323,-21.17149231883191,-18.33596505900304,4.674369386552075,-2.965228095205338,11.27250366815798,-4.326087504788026,7.771586431071173,9.825119867703663,-12.62981595501443,12.95930945421565,12.04164838004226,13.19084203715344,-2.380736904183194,-34.90883436614005,1.932842000978908,-1.824523109560249,5.354746487322089,10.96456367171439,-11.77913390139589,1.999692183946484,-20.4583475972228
35.79084741147787,5.031059508223148,5.752381026005557,80.01946454641653,-10.27687628305685,1.760740876143127,19.75007205492989,13.32162606179179,4.800949940124639,5.85319687391643,-0.5523505468026957,2.981222683894015,-23.52076936280554,-15.78933829709895,-20.66871001652681,3.737397232097681,-7.913895373610448,-17.97474317935559,5.293169925554265,-17.96320344452365,2.255020872167397,-1.645795317005812,-13.4510309109619,9.995688475092352,-5.05171431641697,-18.86565695075888,-5.537057858823396,-2.324961656591091,-24.05697211995628,-4.415525254856934,-1.873419072096204,19.78914368316951,-12.03442309191391,13.29640083991688,16.32492617332985,16.58696185128172,-9.905626322490855,-5.037364148285729,20.11571535546688,2.72462623073096,-19.13121723669678,0.7025533442711248,-2.215836189806016,17.75663454926106,-3.862750433110364
-2.751568632218008,-8.256968024332705,7.191491489667783,-10.27687628305685,77.24495883971663,2.253402707934168,1.580813706340157,5.523047223086676,-24.27011008534852,-11.82849696618087,-0.4407381851681047,-27.60075893189862,-27.44292149359027,29.47103650841731,8.423913614188722,-23.49084311725256,-21.16527257058019,3.957480201124363,-12.95661983035609,16.88949500620838,-8.794748385560156,15.19321924262969,8.206729315359974,19.46761710209852,4.625247316218555,11.25408369847426,-11.13419527230946,2.12026984952848,22.74730613646042,2.124957880185094,-16.28394253005681,-23.72319257791279,15.99583128371511,9.06969297926624,-8.402600563419087,2.277943345388088,21.14463135733655,-4.226024257549958,-0.8054929483138642,-24.28118059472026,-18.55418225161752,-5.454998856318613,5.096311452993125,7.316990550385534,-8.93877845490583
23.96314876163732,10.80438437861977,15.55379758694391,1.760740876143126,2.253402707934167,86.37620993343022,0.985710391855988,21.67674171212678,1.654575189013616,-2.915720573721421,-6.703514467766104,7.443470423097511,-1.584427245454504,43.91866682494626,-2.281093157359865,-3.298264620200202,35.18883233054264,-0.2561859674123656,-6.662715319020385,-20.98897765570653,8.180762825342196,0.3049760271055993,5.52884574401537,12.76471774262734,9.956753869665878,2.548681179051584,0.4665412300997418,10.2763777809775,23.51838698444347,-15.66913122642155,1.872816636316801,12.69034843342775,-13.67453501209472,1.15610032036454,4.913748073303481,1.04358463600611,-7.147865618915572,0.6300773874736532,18.06902923727018,-16.50578967691419,1.983405935056797,4.172607651584626,-1.700355743495883,-14.68858879497626,-3.71630185305661
6.7154413535164,-6.769382726866953,-7.21539915356388,19.75007205492989,1.580813706340158,0.985710391855988,97.30533680532869,-5.673428621512265,-0.6009312600416491,17.03108952306607,-6.650343991314562,-9.429707451376682,-21.66067992273989,-7.737414620992413,15.17854010171406,12.20335076824381,24.63712098042052,8.587698246848918,9.221552697825423,13.10487471765912,14.18428176101371,-29.35750768440738,-22.09769577292022,-19.80130990364784,20.36660903748984,21.937894760586,8.0527749414032,2.683290698848984,-30.10002886127547,19.2039314142379,5.420226790712175,-20.15638819437191,-4.513829230239981,16.53224673782478,-4.458599773411079,-14.1818538653116,-7.301191780484301,-20.95168862621505,9.63823560195706,-8.797859211204591,-19.55352060054039,-20.10525530455717,-2.893980173159168,-6.366282852277528,7.902028861130484
21.59186075333478,-1.939321272374301,1.62360819790831,13.32162606179179,5.523047223086675,21.67674171212678,-5.673428621512269,100.7320054456639,-3.533875118758377,-11.72436198311247,17.28768156546403,-22.70049664281492,-18.56241760162725,5.162121335542329,-32.34122532439563,-6.461891393324174,41.58970461767744,-28.48707623044204,16.59223391148914,-4.156370184436945,6.086373409968503,1.46323776093439,-10.13594818806318,24.09765802074031,-9.181469627151927,14.00850680191716,13.14184098875892,-24.62234791977417,-3.6332534496814,-18.97997576777647,7.102269171811807,2.234870409537135,7.158526020916746,9.049444460482475,19.30767671720021,-6.133952236864108,27.16101548508852,12.81791469804448,1.128044915212098,21.26041392218128,21.43173001531621,3.613125864749073,11.25770409343313,-16.68011434685724,15.39186578277055
-7.594848881155849,4.666203511718655,-1.866498040098459,4.80094994012464,-24.27011008534852,1.654575189013614,-0.6009312600416478,-3.533875118758375,74.16215876312388,5.756477342639224,-3.452420645785225,-10.98498009302113,-3.535900758423123,-13.75433636598765,7.191536265934714,3.192001840731043,-8.88830061253344,-4.107239901685094,17.77692065593755,13.4226710599997,-13.25599198002582,6.745569207318061,1.785842297014862,-14.65976822594432,-9.083853766433945,-20.61466872990996,-0.04020624570992226,-3.983290294672376,-10.00513560548694,2.935319978160523,5.167582391901163,33.38525101987753,24.55127473486238,1.343575981485632,-33.4135650212575,-1.57188401745981,-1.588361355290074,-4.211790032998207,1.142902233829407,-2.310750358214258,16.50036100624498,-14.09369386914699,0.6401888388942082,-4.515403980327247,-31.44686496773273
-6.641137291508247,19.550778406335,-8.673330063466731,5.853196873916429,-11.82849696618086,-2.91572057372142,17.03108952306608,-11.72436198311247,5.756477342639223,86.67171446268364,34.39511474337167,1.506111836459876,-4.224986052690197,1.048512182791574,17.98511862361212,18.65947566609432,10.78903744718361,11.98636866922971,8.016082031267297,-12.62031451290353,5.414823161729989,-5.752351727146734,-21.37468608582255,-3.812466813045151,26.73877575522477,14.8279988602757,-19.93607022522941,13.96264617494762,1.86732032636299,-3.255379036881306,-3.01632520911184,2.457906150211912,16.38110318700326,-5.794567740544211,-17.88546080847673,-23.04107423130764,-9.058506261750223,-6.779701717927993,6.856322176926772,19.79912288636217,-12.23141629323922,-1.081094459003249,28.8662699413319,3.65983860558155,-1.959942372056809
-21.35132412476979,12.30757839090136,-1.635342393588003,-0.5523505468026965,-0.4407381851681036,-6.703514467766106,-6.650343991314562,17.28768156546403,-3.452420645785225,34.39511474337167,70.84111766274071,4.903562164737496,-11.5892548944812,5.276153713980952,7.733920621517233,-4.769723752651134,2.719139508863709,-6.397977163283378,12.29312193051309,-28.14636373624439,-3.396238790536047,-6.915729161204275,-6.695087017242858,-6.353471387265335,16.00247525769171,7.358941737531987,-10.01301494092137,1.911570208163537,21.87269354673727,5.380603193994042,-11.68523553833956,-5.747759847553264,12.99768522571093,-11.92898147906133,11.51526524218624,-3.156882775184676,13.31119363689168,8.78337296949165,-0.8536734129538209,10.34255059321973,-14.69065792499472,2.242437733647165,25.29280147644788,-0.5023565530384675,5.215208973347142
-21.06253113692512,1.004317189235067,1.247833254806972,2.981222683894015,-27.60075893189862,7.443470423097511,-9.429707451376682,-22.70049664281492,-10.98498009302113,1.506111836459877,4.903562164737497,91.62717083095164,12.54792010292641,0.3487302141984991,-0.7843907016579932,-16.46827103893935,-2.336203499964133,13.8244560218372,-9.331459975721391,-9.966762724913428,3.971983488077108,-15.3793353153012,10.07541128657797,-25.38785518209963,14.43165464489447,-18.36473294779223,-4.701282674579186,15.98888275519536,-12.15299993353045,8.910205083736496,15.82533832511319,3.812019753481947,-14.31814374153626,-14.97544134699471,7.516888037982113,7.189371974797923,-15.05150531642057,15.27772733175503,9.84885810896022,-8.720065038176839,-4.156708194947759,-3.248151620149335,23.4048831925294,-9.844029071098587,17.72125367732393
-3.483677116747995,14.72777073765237,-22.78484818061861,-23.52076936280554,-27.44292149359027,-1.584427245454506,-21.66067992273988,-18.56241760162725,-3.535900758423121,-4.224986052690197,-11.5892548944812,12.54792010292641,108.3675742087734,-2.249902725313517,28.05555487612533,10.98950820200524,-5.74144181482389,8.925861716598133,-1.018099939374769,-14.11033616655582,6.484331015786437,-0.5563131652971939,-5.90438588440752,-7.614494716986363,-22.93838111150469,7.607376750526832,20.76356630442563,14.32106675687781,22.12130331715802,5.534127376015275,10.67467117844636,27.88411605372159,-25.72775827075935,-38.68766683333605,2.743099817523285,13.02869975110073,-10.2798211093706,20.68535982037107,-21.36077718714828,14.10935722615337,29.25074052409019,-4.028957795995054,19.43963587869977,-5.286024327587163,16.90781846517094
0.6330893629858018,22.23108541078815,20.07974292874466,-15.78933829709895,29.47103650841731,43.91866682494626,-7.737414620992411,5.162121335542325,-13.75433636598765,1.04851218279157,5.276153713980953,0.3487302141984993,-2.249902725313519,98.31720373307553,10.0076282840152,9.606315648494231,-1.475096488332788,35.19451133845801,-3.282444740876737,-8.348478457314185,9.427139587145977,23.07791302591991,7.79849576859335,9.338132537883025,-4.553769471714277,8.736767831795959,-0.957210216908715,-8.707651332480944,51.0717142371022,-5.609931937184403,-14.93276902429943,-2.99573148012495,-4.305003768246624,-2.613923077233336,-10.57289776989333,1.982142710304114,14.68266389088216,6.002979734425877,-15.22987466462723,-14.94009653728675,-2.821127865303746,-0.1819835648859879,12.77506312226827,-30.32121503706233,-28.43643502987184
-19.01757973395413,-4.983192715501563,-11.84651591312573,-20.66871001652681,8.423913614188724,-2.281093157359862,15.17854010171406,-32.34122532439563,7.191536265934719,17.98511862361212,7.733920621517231,-0.784390701657992,28.05555487612533,10.0076282840152,101.6374384473889,7.269449213284013,-12.900758146975,19.40130827692745,8.569319151458931,8.900063906094216,23.8535619625366,-11.60075648228911,11.16900909911459,-31.38050709385016,37.1581164669545,19.14513727182993,-5.407993873238015,7.023041186299779,1.045911298125981,7.201087765344895,-25.40991555983067,-6.684551609900443,-33.66397304089036,-14.27808593737126,-26.88002797741391,-8.146035725457079,16.15405036542046,7.899777235527622,-19.83923765165942,-11.79822726371798,5.42573153639901,-4.261534997165318,10.20166835569957,-8.46779476334132,1.658213744740474
22.76123790435324,17.17647113142002,-7.408960369978251,3.73739723209768,-23.49084311725256,-3.2982646202002,12.2033507682438,-6.461891393324172,3.192001840731041,18.65947566609432,-4.769723752651133,-16.46827103893935,10.98950820200524,9.606315648494231,7.269449213284013,81.41418920133695,-2.016643410768765,25.62573541207734,10.87927161766775,-4.632909221301109,21.01900717577597,-3.614716854705108,-12.67328210314324,16.54750291265956,1.922527666963412,-2.202878653860239,-0.1561449917938178,-18.66644644866189,1.767263105855372,-17.84543696103136,3.294574416795878,23.38691499432271,-9.2673644564792,-2.263552134805112,-1.982264436937296,0.2327245910336824,19.4269589121529,6.341216926155011,-19.16355832325107,3.664790084172932,-2.381571380168208,-0.9172277626008807,-6.054620238089739,4.20385259743064,-6.943701901551886
26.33923453615568,17.54860310829499,-8.736143016985755,-7.913895373610449,-21.16527257058019,35.18883233054264,24.63712098042052,41.58970461767744,-8.888300612533437,10.78903744718361,2.719139508863709,-2.336203499964135,-5.741441814823889,-1.475096488332788,-12.900758146975,-2.016643410768764,144.485396665477,-9.112225971324236,-20.36073480053544,-8.024872263362706,-10.55609310991283,-11.5464367435804,-1.699161568909973,-16.96402295282602,22.51107484748069,13.23072542970174,20.19933406807935,-11.70080498279335,-6.7666216101391,8.017449983757942,-19.33472155006379,-10.19142584342718,30.2742632080873,14.9097929145307,28.2166587241801,-22.47446350130319,25.6230811762408,-9.944176385365846,13.44535924336686,14.58998414313243,26.99408876505231,1.343513801715844,11.12232778771901,-23.28361026156576,36.74761246009287
-15.54987902470859,11.22116499585806,-2.196490252818801,-17.97474317935559,3.957480201124364,-0.2561859674123642,8.587698246848918,-28.48707623044204,-4.107239901685095,11.98636866922971,-6.397977163283377,13.8244560218372,8.925861716598131,35.19451133845801,19.40130827692745,25.62573541207734,-9.112225971324232,81.41963013955585,12.69927933155375,29.78044234726154,13.10024770014079,12.52437071234857,2.175307716009993,5.019431063656266,15.48870693957046,-5.008213289965403,-0.6343171921846282,-1.979106129631676,7.663277021025936,0.1093429846299565,-6.200992080818791,4.780910505755552,4.002668297686789,-10.18494033314092,-24.91120338480877,2.323444328858406,-1.778813229184098,20.89934071121117,-14.0033974881101,1.479517001078114,-18.96158879441599,5.261666446481874,5.35071718572193,-36.43969202679567,-17.30481732632819
-8.727191439430227,2.047700134388045,-16.15840104908673,5.293169925554264,-12.95661983035609,-6.662715319020385,9.22155269782542,16.59223391148914,17.77692065593755,8.016082031267301,12.29312193051309,-9.331459975721391,-1.018099939374769,-3.282444740876734,8.569319151458929,10.87927161766774,-20.36073480053544,12.69927933155375,76.84651874838862,13.88278854084374,-3.948179030499096,11.67894079484542,-9.382125220510702,-2.100417704991689,1.893404695988385,16.09596594619454,-17.80169582626869,1.115987530256954,5.536920668803914,-4.374761495446422,2.348184690761473,-11.19894185819769,-5.906275160796669,-10.95728190300634,-11.07271504512535,-3.719106762146354,8.111169165068777,15.27153829680476,4.745828441681301,8.167395081844044,13.77286828032369,-6.732510871755359,8.179672924580631,-19.09172736938598,-12.03697213921084
-9.884055546263921,-19.11436084716696,0.9783078288376517,-17.96320344452365,16.88949500620839,-20.98897765570653,13.10487471765912,-4.156370184436943,13.4226710599997,-12.62031451290352,-28.14636373624439,-9.966762724913428,-14.11033616655582,-8.348478457314183,8.900063906094216,-4.632909221301107,-8.024872263362708,29.78044234726154,13.88278854084374,109.6300005250941,-21.98778336413061,17.1921693565993,-14.47608067010618,1.216484466571262,2.881607830722431,2.79732292155472,7.96993390075048,-31.86087361197536,-18.11089517071992,26.30012223939369,4.396172858365236,-33.70246777502339,11.5378762107478,-13.4128311851945,-27.63820673922365,8.211263364618874,2.861574550891842,-8.736369745381497,-0.2511722841944534,9.189259509830844,2.828575950793817,4.405218568003233,3.604802860736107,-35.25165999731702,-7.801777920702562
12.97458605244785,-21.84412756789299,-1.752534494040584,2.255020872167397,-8.79474838556016,8.180762825342196,14.18428176101371,6.086373409968505,-13.25599198002583,5.414823161729986,-3.396238790536048,3.971983488077107,6.484331015786432,9.427139587145971,23.8535619625366,21.01900717577596,-10.55609310991284,13.10024770014079,-3.948179030499097,-21.98778336413061,112.4740926841893,-22.54461003715195,1.565144628453032,2.935065632787903,0.3092439128394986,2.985658984028416,-6.240552665852353,-15.40858158367058,-16.08373867693377,-30.47488536169433,4.782992888945071,-3.831501658931677,-42.84549019630268,24.90078141882478,7.146431287957147,8.570571062672954,-25.01563395636172,26.52598701960039,-16.69681976547789,-2.505978692276036,12.58661966089069,-2.927608000683445,-27.15446520775702,-9.845491866050374,-13.54697895643865
11.95723266634826,28.37889451178226,0.4058823708140328,-1.645795317005809,15.19321924262969,0.3049760271056,-29.35750768440738,1.463237760934389,6.745569207318063,-5.752351727146733,-6.915729161204275,-15.3793353153012,-0.5563131652971921,23.07791302591991,-11.60075648228911,-3.614716854705108,-11.5464367435804,12.52437071234857,11.67894079484542,17.1921693565993,-22.54461003715195,94.57708043109825,6.197476499654613,4.863899220951177,-22.53935227313698,-7.612848494509758,-6.050792736276773,-13.25871418062796,27.38875151567645,-17.22962405410969,-12.34121465014563,14.75561256332928,16.42383979792765,-2.586817949293147,11.35855097347653,26.61501818917804,-2.590939442784147,-5.683587480059734,-20.06779964196828,-7.174922403614945,5.885127031648027,-8.250395219152882,-4.089765468422905,14.82987769581964,-23.30132877144944
-18.79748012342639,-3.108905938888172,4.309890736118563,-13.4510309109619,8.206729315359977,5.528845744015367,-22.09769577292021,-10.13594818806318,1.785842297014862,-21.37468608582255,-6.69508701724286,10.07541128657797,-5.904385884407517,7.79849576859335,11.16900909911459,-12.67328210314324,-1.699161568909972,2.175307716009994,-9.382125220510703,-14.47608067010618,1.565144628453032,6.197476499654615,80.5936100059803,-20.55744971282726,4.475778311245702,-26.60302575044668,-10.72531341337028,20.90271315398901,23.71102309332448,-8.727885941906793,-15.69152115630253,6.800978719168181,-23.77957878259899,-2.397468657251886,-1.254212335443607,-17.53040625963476,4.798674015643443,4.323868137412516,-7.173328218836613,-20.92566910341419,12.80539200097992,-6.081897021384352,0.2279997808758001,9.170899198494185,10.14834157331675
23.83131567970594,-13.04345378777111,11.83868765588323,9.995688475092351,19.46761710209852,12.76471774262734,-19.80130990364784,24.09765802074031,-14.65976822594433,-3.812466813045151,-6.353471387265333,-25.38785518209963,-7.614494716986361,9.338132537883029,-31.38050709385016,16.54750291265956,-16.96402295282602,5.01943106365627,-2.100417704991687,1.216484466571263,2.935065632787906,4.863899220951179,-20.55744971282726,97.73037863023936,-28.67390950387422,17.34207978535169,2.69431261944914,-3.413805873946241,11.46550458944933,-21.33495210588358,17.16867595752923,7.237589501772542,-8.14079143264213,-5.41930765440333,-1.691727195254826,11.83331281286611,-2.196312713478676,0.0378893383274443,9.95500059957223,27.54527326858644,-28.47944730758484,38.13343717805986,-9.728217900084971,7.658392410623189,1.583495912192397
-12.18208186975519,8.942431965171867,-21.17149231883191,-5.051714316416967,4.625247316218555,9.956753869665878,20.36660903748985,-9.181469627151927,-9.083853766433945,26.73877575522477,16.00247525769171,14.43165464489447,-22.9383811115047,-4.553769471714278,37.1581164669545,1.922527666963413,22.51107484748068,15.48870693957046,1.893404695988385,2.88160783072243,0.309243912839502,-22.53935227313698,4.475778311245701,-28.67390950387422,119.8090079130661,-15.81041678013895,-13.76962003750641,-7.15500964583458,-36.86323135312558,-9.755748036977018,-24.15585320076536,-7.517438325549054,7.763615147609986,9.051507017875121,-8.196897680175821,-25.84276340874339,15.97510271644698,5.219687879651579,-4.993482403401474,-18.2882616833793,-16.04207931996682,-2.803269175368164,12.44314473270429,-18.19205412865415,24.62086445055944
-0.8506737135352394,-7.857102810596048,-18.33596505900303,-18.86565695075888,11.25408369847426,2.548681179051584,21.937894760586,14.00850680191715,-20.61466872990996,14.82799886027569,7.358941737531987,-18.36473294779223,7.607376750526831,8.736767831795959,19.14513727182993,-2.202878653860241,13.23072542970174,-5.008213289965403,16.09596594619454,2.79732292155472,2.985658984028416,-7.612848494509756,-26.60302575044668,17.34207978535169,-15.81041678013895,112.8398015315796,9.27711081321347,36.99672324195726,21.0747334219142,-6.889019825943137,1.721558979447502,-52.84152406988689,8.200159603034555,-12.87209616019818,-2.523672414534277,-2.880410202859844,9.780715411918376,14.19116658743772,8.344309927296591,32.63920141635096,-26.93851819817749,-2.338754847933089,3.635608320840215,-9.990213985033252,6.999123421643689
2.695667145946956,5.847480026130014,4.674369386552076,-5.537057858823396,-11.13419527230946,0.4665412300997413,8.052774941403202,13.14184098875892,-0.04020624570992282,-19.93607022522941,-10.01301494092137,-4.701282674579188,20.76356630442564,-0.9572102169087128,-5.407993873238015,-0.1561449917938174,20.19933406807935,-0.6343171921846285,-17.80169582626869,7.969933900750481,-6.240552665852355,-6.050792736276773,-10.72531341337028,2.69431261944914,-13.76962003750641,9.277110813213469,56.11309037515309,-8.551060397075487,-13.15937762477429,6.967036781507118,21.76384565582294,6.099934001911453,20.31225529984191,7.720893785899842,16.79201554966436,12.09454769630411,9.056574237186734,-4.798820336841883,-0.4348050351465069,5.468211424057756,6.523547873580793,4.412793894370208,-6.621745743751095,-9.015931566244488,21.87385542361466
-22.43703949005932,6.262389012286967,-2.965228095205338,-2.324961656591089,2.120269849528482,10.2763777809775,2.683290698848986,-24.62234791977417,-3.983290294672377,13.96264617494761,1.911570208163536,15.98888275519536,14.3210667568778,-8.707651332480944,7.023041186299781,-18.66644644866189,-11.70080498279335,-1.979106129631675,1.115987530256953,-31.86087361197536,-15.40858158367058,-13.25871418062796,20.90271315398901,-3.41380587394624,-7.15500964583458,36.99672324195726,-8.551060397075485,85.16251176362471,18.5806741034628,-9.93663122877504,3.912223609754537,-1.332947723713019,-9.98325874812503,-24.39929480581035,-11.19947775472526,-13.54086847739433,-14.35815347849546,14.34386675137715,5.328972967536614,11.97397195029584,-27.43136346959583,-0.3886491791021091,-3.175583059101123,15.52269994156235,15.9548769944441
-12.25523878963282,8.48536711529932,11.27250366815798,-24.05697211995628,22.74730613646042,23.51838698444347,-30.10002886127547,-3.633253449681396,-10.00513560548695,1.86732032636299,21.87269354673727,-12.15299993353045,22.12130331715802,51.0717142371022,1.04591129812598,1.767263105855368,-6.766621610139096,7.663277021025934,5.536920668803912,-18.11089517071992,-16.08373867693377,27.38875151567644,23.71102309332448,11.46550458944933,-36.86323135312558,21.0747334219142,-13.1593776247743,18.5806741034628,106.8704429869435,13.28229925956606,-18.22845826033637,-10.18562038015364,5.676568495588548,-28.63125286961275,13.53717006610888,8.939575608503938,11.07108775397776,0.610270909084364,-3.932651432399837,-4.510578632878326,4.355152644797522,9.203992437189248,20.08943426288221,-0.8611348506740817,-11.08980972662371
-18.1803191413444,-17.29244194044049,-4.326087504788026,-4.415525254856934,2.124957880185097,-15.66913122642155,19.20393141423791,-18.97997576777647,2.935319978160521,-3.255379036881305,5.380603193994042,8.910205083736495,5.534127376015273,-5.609931937184403,7.201087765344897,-17.84543696103136,8.017449983757942,0.1093429846299563,-4.374761495446418,26.30012223939369,-30.47488536169433,-17.22962405410969,-8.727885941906795,-21.33495210588358,-9.755748036977018,-6.889019825943136,6.967036781507118,-9.936631228775036,13.28229925956606,94.95468792079602,-4.72839039172318,-15.38387486738014,17.27955307745833,-5.816502086009741,1.724891606944941,5.509526758247467,4.146443066399354,-18.75329395591428,13.68777270762641,-0.1166803382310444,2.47347550205201,-6.813768243283642,24.069284079526,-8.253012380862636,-1.405246948240135
-14.66313594174038,-12.20650318762066,7.771586431071173,-1.873419072096201,-16.28394253005681,1.872816636316801,5.420226790712174,7.102269171811805,5.167582391901164,-3.01632520911184,-11.68523553833956,15.82533832511319,10.67467117844636,-14.93276902429943,-25.40991555983067,3.294574416795877,-19.33472155006379,-6.200992080818788,2.348184690761472,4.396172858365235,4.782992888945069,-12.34121465014563,-15.69152115630252,17.16867595752923,-24.15585320076536,1.721558979447502,21.76384565582294,3.912223609754537,-18.22845826033638,-4.728390391723178,83.44147348709305,15.72949364178395,28.02787336558352,-7.463663003764251,1.593269938426845,9.32431683072471,-5.737959561312484,-12.12308190319056,6.544554725500099,10.61701700535055,6.503579265364356,3.007571308010719,6.914688826194388,3.440846481958051,18.2018570412647
6.860895434441748,33.3535366280228,9.825119867703661,19.78914368316951,-23.72319257791279,12.69034843342775,-20.15638819437191,2.234870409537136,33.38525101987753,2.45790615021191,-5.747759847553263,3.812019753481947,27.88411605372159,-2.995731480124948,-6.684551609900441,23.3869149943227,-10.19142584342718,4.780910505755552,-11.19894185819769,-33.70246777502339,-3.831501658931678,14.75561256332928,6.80097871916818,7.237589501772541,-7.517438325549055,-52.84152406988689,6.099934001911455,-1.332947723713019,-10.18562038015364,-15.38387486738013,15.72949364178395,104.1310388927565,7.931776434170047,-6.885354780041664,-2.046489019706269,2.242372955547436,3.904291322281091,-1.625720120088161,-13.38476494904444,-1.802924067849656,6.522854090118628,-3.352412500345994,11.18119865101078,12.69045493954841,-6.280528237390689
-5.317705390503683,25.90088759355204,-12.62981595501443,-12.03442309191391,15.99583128371511,-13.67453501209472,-4.513829230239986,7.158526020916747,24.55127473486237,16.38110318700326,12.99768522571093,-14.31814374153627,-25.72775827075936,-4.305003768246626,-33.66397304089036,-9.267364456479196,30.2742632080873,4.002668297686791,-5.906275160796669,11.5378762107478,-42.84549019630269,16.42383979792765,-23.77957878259899,-8.140791432642127,7.763615147609986,8.200159603034553,20.31225529984191,-9.98325874812503,5.676568495588548,17.27955307745834,28.02787336558352,7.931776434170047,164.0581756130858,12.4107958947852,14.32379408284129,5.89669155625382,49.54270873393901,-10.65614796426339,-1.493628340756283,-4.530390020537401,-4.354231468970452,-20.96228959883694,17.6246081060855,-15.25017387857204,7.994458530163715
17.31014391393195,-24.9014358051238,12.95930945421565,13.29640083991688,9.069692979266241,1.156100320364539,16.53224673782478,9.049444460482478,1.343575981485629,-5.794567740544211,-11.92898147906133,-14.97544134699471,-38.68766683333605,-2.613923077233336,-14.27808593737126,-2.263552134805113,14.9097929145307,-10.18494033314092,-10.95728190300635,-13.4128311851945,24.90078141882478,-2.586817949293143,-2.397468657251889,-5.41930765440333,9.051507017875121,-12.87209616019818,7.720893785899841,-24.39929480581036,-28.63125286961275,-5.816502086009741,-7.463663003764254,-6.885354780041664,12.4107958947852,103.1875864865941,9.257127477295258,8.89362359638614,-18.63013731251666,-5.865411101929431,23.91831783591025,-22.89995774498228,-0.6718146299911341,-14.16637967422808,-32.2535541412336,-3.315948082541797,-44.72609115662819
25.04596343106724,8.66819082181893,12.04164838004225,16.32492617332986,-8.402600563419089,4.913748073303482,-4.45859977341108,19.30767671720021,-33.4135650212575,-17.88546080847673,11.51526524218624,7.516888037982113,2.743099817523286,-10.57289776989333,-26.88002797741391,-1.982264436937301,28.21665872418011,-24.91120338480877,-11.07271504512534,-27.63820673922365,7.146431287957144,11.35855097347653,-1.254212335443606,-1.691727195254826,-8.196897680175818,-2.523672414534271,16.79201554966436,-11.19947775472526,13.53717006610888,1.724891606944941,1.593269938426844,-2.046489019706269,14.3237940828413,9.257127477295258,104.3418590248689,16.8035015536073,16.86331432872929,-1.010838750397609,-1.323711588471349,-12.44610405397778,5.269233402405147,3.082155365818453,5.379798722437564,12.34660782638361,41.74912019853658
14.37545135098279,-1.548612485832029,13.19084203715344,16.58696185128172,2.277943345388087,1.043584636006113,-14.1818538653116,-6.133952236864104,-1.57188401745981,-23.04107423130764,-3.156882775184676,7.189371974797923,13.02869975110073,1.982142710304115,-8.146035725457081,0.2327245910336818,-22.47446350130319,2.323444328858406,-3.719106762146354,8.211263364618874,8.570571062672952,26.61501818917804,-17.53040625963476,11.83331281286611,-25.84276340874339,-2.880410202859844,12.09454769630411,-13.54086847739433,8.939575608503942,5.509526758247467,9.324316830724708,2.242372955547435,5.89669155625382,8.89362359638614,16.8035015536073,68.96363649322555,-20.73083394814416,-1.718369912969361,-6.096805007643101,-1.273973630334066,-5.714986273277248,-9.362033506189972,-30.11592369850182,18.653815862712,-17.46769635890896
4.28332629752953,25.84303593711566,-2.380736904183194,-9.905626322490853,21.14463135733655,-7.14786561891557,-7.301191780484302,27.16101548508852,-1.588361355290074,-9.058506261750223,13.31119363689168,-15.05150531642057,-10.27982110937061,14.68266389088216,16.15405036542046,19.4269589121529,25.6230811762408,-1.778813229184098,8.111169165068777,2.861574550891844,-25.01563395636172,-2.590939442784147,4.798674015643445,-2.196312713478676,15.97510271644698,9.780715411918372,9.056574237186732,-14.35815347849546,11.07108775397776,4.146443066399351,-5.737959561312483,3.904291322281088,49.54270873393901,-18.63013731251666,16.86331432872929,-20.73083394814416,98.01969145971125,4.805695032133788,-13.92586940077196,-12.52193715800676,14.94954980998669,-1.249822632479871,38.73748994788416,-16.59453714260707,21.89939778508236
-6.314988865814258,-3.137866541530371,-34.90883436614005,-5.037364148285729,-4.22602425754996,0.6300773874736558,-20.95168862621505,12.81791469804448,-4.211790032998207,-6.779701717927993,8.783372969491648,15.27772733175503,20.68535982037107,6.002979734425878,7.899777235527622,6.341216926155014,-9.944176385365848,20.89934071121117,15.27153829680476,-8.736369745381495,26.5259870196004,-5.683587480059735,4.323868137412518,0.03788933832744507,5.219687879651579,14.19116658743772,-4.798820336841882,14.34386675137715,0.6102709090843639,-18.75329395591427,-12.12308190319056,-1.625720120088162,-10.65614796426339,-5.865411101929431,-1.01083875039761,-1.718369912969358,4.805695032133787,76.55376451210812,-8.72081937615274,3.285186480521886,-12.67386515332963,5.358816091906176,-0.6910786905930003,-28.46704921523772,-1.111806149483081
7.795673220709455,-19.19122692963864,1.932842000978906,20.11571535546687,-0.8054929483138639,18.06902923727018,9.638235601957058,1.128044915212096,1.142902233829405,6.856322176926774,-0.8536734129538219,9.84885810896022,-21.36077718714828,-15.22987466462723,-19.83923765165942,-19.16355832325107,13.44535924336686,-14.0033974881101,4.745828441681299,-0.2511722841944527,-16.69681976547789,-20.06779964196828,-7.173328218836611,9.95500059957223,-4.993482403401476,8.344309927296594,-0.4348050351465085,5.328972967536615,-3.932651432399837,13.68777270762641,6.544554725500094,-13.38476494904444,-1.493628340756282,23.91831783591025,-1.32371158847135,-6.096805007643099,-13.92586940077196,-8.720819376152738,87.44666072971278,-7.928846331108664,-11.46469780646427,3.469780257013892,22.27262940128256,-4.100012704311613,-13.00423421411922
-8.179943247996325,-7.523643477200601,-1.82452310956025,2.72462623073096,-24.28118059472026,-16.50578967691419,-8.797859211204589,21.26041392218128,-2.310750358214259,19.79912288636217,10.34255059321973,-8.720065038176839,14.10935722615338,-14.94009653728675,-11.79822726371798,3.664790084172931,14.58998414313243,1.479517001078112,8.167395081844044,9.189259509830844,-2.505978692276038,-7.174922403614945,-20.92566910341419,27.54527326858644,-18.28826168337929,32.63920141635096,5.468211424057754,11.97397195029584,-4.510578632878324,-0.1166803382310428,10.61701700535055,-1.802924067849656,-4.530390020537407,-22.89995774498228,-12.44610405397779,-1.273973630334067,-12.52193715800676,3.285186480521886,-7.928846331108662,85.58461927689592,-12.86489517070007,24.70265845686713,-6.842858235068952,-17.66804818679444,16.62956149541568
0.9547481286082328,1.146250977529784,5.354746487322088,-19.13121723669678,-18.55418225161752,1.983405935056797,-19.55352060054039,21.4317300153162,16.50036100624497,-12.23141629323922,-14.69065792499472,-4.156708194947761,29.25074052409019,-2.821127865303744,5.42573153639901,-2.381571380168206,26.99408876505231,-18.96158879441599,13.77286828032369,2.828575950793819,12.58661966089069,5.885127031648024,12.80539200097993,-28.47944730758484,-16.04207931996682,-26.93851819817749,6.523547873580792,-27.43136346959583,4.355152644797522,2.473475502052009,6.503579265364356,6.522854090118627,-4.354231468970454,-0.6718146299911346,5.269233402405145,-5.714986273277248,14.94954980998669,-12.67386515332963,-11.46469780646428,-12.86489517070007,83.3806554887486,-13.856876130272,11.17691653932292,-3.441638110669921,0.4019697372614432
-4.130593354731156,-11.66665879955234,10.96456367171439,0.7025533442711265,-5.454998856318614,4.172607651584627,-20.10525530455717,3.613125864749072,-14.09369386914699,-1.081094459003249,2.242437733647167,-3.248151620149335,-4.028957795995053,-0.1819835648859867,-4.261534997165318,-0.9172277626008808,1.343513801715843,5.261666446481872,-6.732510871755357,4.405218568003233,-2.927608000683445,-8.250395219152882,-6.081897021384354,38.13343717805986,-2.803269175368165,-2.33875484793309,4.412793894370208,-0.3886491791021083,9.203992437189248,-6.813768243283641,3.007571308010719,-3.352412500345993,-20.96228959883694,-14.16637967422808,3.082155365818453,-9.362033506189972,-1.249822632479873,5.358816091906176,3.469780257013892,24.70265845686713,-13.856876130272,60.4903868282935,-10.26668896491081,-13.35236185105587,20.99784634404857
-19.52034587115599,9.509618721202811,-11.77913390139589,-2.215836189806013,5.096311452993127,-1.700355743495887,-2.893980173159171,11.25770409343313,0.6401888388942104,28.8662699413319,25.29280147644788,23.4048831925294,19.43963587869977,12.77506312226828,10.20166835569958,-6.054620238089741,11.12232778771901,5.350717185721927,8.179672924580629,3.604802860736111,-27.15446520775702,-4.089765468422907,0.2279997808757965,-9.728217900084971,12.4431447327043,3.635608320840214,-6.621745743751096,-3.175583059101121,20.08943426288221,24.069284079526,6.91468882619439,11.18119865101079,17.6246081060855,-32.2535541412336,5.379798722437563,-30.11592369850182,38.73748994788417,-0.6910786905929976,22.27262940128256,-6.842858235068952,11.17691653932292,-10.26668896491081,101.8621884563069,-18.34201647479644,10.02200037562727
15.5901220104488,4.037049669539985,1.999692183946482,17.75663454926106,7.316990550385534,-14.68858879497626,-6.366282852277529,-16.68011434685724,-4.515403980327247,3.659838605581552,-0.5023565530384695,-9.844029071098587,-5.286024327587167,-30.32121503706233,-8.467794763341317,4.203852597430638,-23.28361026156577,-36.43969202679568,-19.09172736938598,-35.25165999731702,-9.845491866050375,14.82987769581963,9.170899198494187,7.658392410623186,-18.19205412865415,-9.990213985033254,-9.015931566244488,15.52269994156235,-0.8611348506740816,-8.253012380862636,3.44084648195805,12.69045493954841,-15.25017387857204,-3.315948082541798,12.34660782638361,18.653815862712,-16.59453714260707,-28.46704921523772,-4.100012704311615,-17.66804818679444,-3.441638110669921,-13.35236185105587,-18.34201647479644,95.38654088026607,9.434659086998961
-6.227326886569985,5.56903788176226,-20.4583475972228,-3.862750433110365,-8.938778454905828,-3.716301853056604,7.902028861130471,15.39186578277055,-31.44686496773271,-1.959942372056813,5.215208973347141,17.72125367732393,16.90781846517094,-28.43643502987184,1.658213744740475,-6.943701901551887,36.74761246009288,-17.30481732632819,-12.03697213921085,-7.801777920702562,-13.54697895643865,-23.30132877144944,10.14834157331675,1.583495912192395,24.62086445055944,6.999123421643685,21.87385542361466,15.95487699444409,-11.08980972662371,-1.405246948240135,18.20185704126471,-6.28052823739069,7.994458530163712,-44.72609115662818,41.74912019853657,-17.46769635890896,21.89939778508236,-1.111806149483081,-13.00423421411923,16.62956149541568,0.4019697372614446,20.99784634404857,10.02200037562727,9.434659086998964,108.0576206566614
