104.2857236331178,-8.151451191122517,3.201053582947812,-1.793455039998964,38.83076079275353,-5.064368612055346,1.558202964491383,-2.400265697096828,-4.117120440817929,4.691502302084912,16.73726205134067,-1.470861176531391,3.668523510717891,-12.26824118225394,18.80442808836691,6.355218889659672,-2.354258936297261,31.0570657726698,-4.226705797088467,-26.93452288815842,23.80461172027633,9.777605975485649,-7.766349469032071,-25.04573441232857,21.74495360631394,11.13636703079098,-14.49485784760784,-10.57490197127727,4.300092877229034,32.82536647165795,-0.7189633084058732,-2.394499621299704,7.594149871006036,7.932541650928928,-14.26014460443553,6.98368180826928,-5.164633943891451,13.0198729579669,-24.50070541202538,11.25051876036859,24.84738490336717,-8.831008632709304,-22.5888847260129,-8.061894510803013,13.15133448214162,-21.10169176301473,-8.685467414669363,13.19098356288483,-2.974850872884312
-8.151451191122513,104.9008448872725,26.83403368144658,8.703967412878741,14.59001436187046,-15.79537661687342,23.61983121294685,12.00325745051303,11.41813845421222,5.30911792660464,-17.06964072722146,-25.90690686129681,14.48961956176945,10.95905627213571,5.405099945705296,-20.39589957679768,-9.017364792428781,-2.424970495321974,-17.62724128454354,11.16748211675931,-8.594089645111941,-2.341724577918905,21.48378084600053,-6.503883803623175,1.275097933300082,-18.06278657438182,9.913839663006364,10.15820691497809,12.54570831913271,-9.210144990204428,-10.55207227850819,-10.59824787639986,2.601728176066184,15.92184934782009,8.228335698663727,7.928324294470385,-13.19891510694046,8.310280865096589,8.349877307561888,-20.07837376182352,3.387623772588835,-9.543200758441445,1.106365388133436,8.644095579761276,9.082594988839228,0.1342301508931983,4.398867479875621,9.017802344062508,37.65065662481106
3.201053582947812,26.83403368144658,73.55188855956911,5.927979240502276,18.00621889899774,7.586617404528792,-6.417687476310162,-3.003246053258861,26.52716501457014,-0.6540010498538363,-8.233569273503592,3.834039794107008,16.72277732005039,22.78177134813646,14.8839922531361,2.71139152109424,7.01134042605363,20.74600085832748,7.597319780429435,24.08100111524926,0.9209205890567643,-2.130222102426229,-9.717971438313246,0.3129562720559494,5.703193196429378,-11.81550756351828,15.26336207887164,0.3673074233726913,-0.7553052516444538,-11.38550300691058,6.86272606309756,6.016525837388982,-4.214076690966737,-1.536953266619849,-12.18447771716598,8.794399483039726,-16.28499115548501,19.14921486550282,-0.7182922043994037,-16.10852929375562,1.484197050923007,9.553796513189708,0.6562273313813367,8.416304937016204,15.82228046119208,-12.57247753971382,-2.656484787411582,-21.56971846618218,18.81161111825785
-1.793455039998962,8.70396741287874,5.927979240502279,118.6698536146806,-7.520223343663147,-2.526798767902649,-2.853778827486468,16.05541458800092,8.655083200708114,10.56250766326592,18.97400206928825,29.27650816371312,-9.476430093428148,-4.422837336801424,27.96490701602418,-12.26541176523674,5.27856920754866,16.9187836344251,22.91093003443353,9.306835932313941,-2.368922758744537,-18.17394805330812,13.19827902298215,-18.91794098469246,-6.108974466032574,-7.965215523915116,18.3146743176086,3.429562045640898,-27.11744719785096,17.49865231334667,-27.95886955333907,18.3601771945167,6.554874077063943,-10.96734081696201,-0.5191010927327404,2.241731689342606,-13.88457325829371,-20.10189674300609,18.1782197490037,11.83636164978295,14.93179310352368,25.55254075522839,-8.328139367406393,-11.89272533116644,-13.93066121422288,16.37159977515194,-12.15265068479232,-34.89793024820255,-19.5572581982998
38.83076079275354,14.59001436187046,18.00621889899774,-7.520223343663146,99.75149602615849,14.90039600974838,-6.854543542064318,-3.284233118274623,-5.138905507412337,1.906180378783287,-4.548244205606101,-2.33436733923896,-2.521942592854082,5.506110807221533,-12.69834758182276,1.470310283264625,-8.185013640767604,22.17575986842809,-6.103979184743795,-17.31390917861676,8.536345745245841,20.27591512887493,9.852331671571816,-5.063273057095057,20.54891049582201,-6.078760654715011,-11.36942682974946,-3.4158702111879,2.143390869630809,7.909644510200295,-9.251919458329043,5.970668485120923,-7.996906309352185,5.08775765844751,8.190514466169502,11.67884041098541,-35.95352429455774,34.67912536058419,-5.502533875379238,-9.618996986654965,-3.560817116221938,-22.703435019198,-15.76653839667528,-14.91820138633888,7.19109882667559,-0.3247823398479869,-1.826198139818767,1.706003547636827,31.94757528270821
-5.064368612055347,-15.79537661687342,7.586617404528792,-2.52679876790265,14.90039600974838,88.74392023471978,5.199552100325874,-8.720183427135643,11.62388759193906,-16.83642853523332,-2.499920510291221,29.87772686973434,-8.115914829106517,-23.59344882733189,-11.53959347793189,10.19033029936105,-9.504695555648507,6.128782059319465,15.94127399932639,9.415974561882065,-3.050778718063451,-22.90556583247642,14.51925051717806,-2.049155134829698,-0.2070509455414434,5.806615852112275,-13.33503232934865,-0.7509176099913267,-2.702077809312061,-1.718659563557898,13.16101233480342,15.97881991720338,-13.38739170150628,-13.78827813332173,-7.745646946836365,-3.432920273437291,-19.1175582997754,4.710684354511147,7.140031710353769,-6.566380022612903,-4.087329349866488,-21.11096158110535,-14.01472891780645,0.9667196135126314,-3.52837723116452,21.80907310571937,3.453880721974199,-12.86102913436218,24.5187417268491
1.558202964491381,23.61983121294685,-6.417687476310164,-2.853778827486467,-6.854543542064317,5.199552100325875,124.8234744821084,5.252260553981721,1.216971042669301,-11.20682520151005,-16.83692853044416,4.623868135095067,-18.28719541399986,-23.11967054559875,-15.96064920947436,6.575717870579424,18.19338964512215,-9.842692609119698,-24.74463000490567,-21.53864705577471,31.69449791102,-7.416590024078986,26.35466481769333,-27.49557049474322,21.43285202322434,0.24105836705417,-19.75782849565621,-14.99740588189055,18.55935147986217,-7.451985975145239,-17.67491047037367,-7.177801306374535,8.523535974948146,5.989007654628714,3.571863245847489,9.89131994935617,-1.314488782608002,-2.477249431523615,32.98911967553349,-8.497892544849138,20.95387003437009,0.9030910815858803,-32.16136289257194,7.175735616139563,-4.180148022849636,8.444662181816195,-3.62737523727953,-14.7491480761619,-3.452382227211318
-2.400265697096831,12.00325745051303,-3.003246053258861,16.05541458800092,-3.284233118274625,-8.720183427135643,5.252260553981722,47.63750730941778,15.92107347350472,-5.606450049773184,-2.973603070043436,2.471243973633168,0.8812356848362858,8.238120103823539,-2.610252914707129,-0.490926852674791,-4.187310697871064,13.97431050877156,8.32844821901757,16.93612331623507,-4.085682519531227,1.913664988324178,7.742090717505647,-0.5303879198379861,-1.243673914933217,-11.6702794863092,28.98530513999524,27.51223635161982,-1.956532342099105,-4.302541133683253,-7.728708833957463,-1.477759213848194,16.67910654081879,13.59608248831741,3.943038532241289,8.443980403836123,6.405427368490538,-0.3307171493568895,28.90894047604386,10.1368214271476,3.166938824917922,-6.298386923954989,-10.95723261713291,-5.860676069479826,-10.80645861200849,4.479120838243512,-4.340260771728639,-7.426579784379954,4.410825193271953
-4.117120440817929,11.41813845421222,26.52716501457014,8.655083200708114,-5.138905507412339,11.62388759193906,1.216971042669301,15.92107347350472,80.0849775007554,-12.69412676034471,-9.769665439898935,6.518363599315922,0.2684579432633287,13.11586767204871,2.779959516031064,0.4126747362513512,-3.574419947996886,26.00655694847615,11.51866397673453,28.72413474516219,12.32458774329185,-30.60254729209406,-12.66404069938675,-6.534457426650809,-14.48664335146554,-11.31371246402385,24.25169587471467,29.49135561675108,-6.289608718238258,-7.39547320138001,5.370395660397874,12.13568002648895,6.155696287854886,-3.563319517722888,-7.800804130326999,-15.79393855543147,6.353210288421736,2.264163662406407,11.07091577479531,6.860278103831251,-23.05059449375537,0.1475152518315623,-11.24503678400136,-8.620604853069423,5.206612050430206,5.784430930462211,-17.92039590102663,-0.6871933040518033,22.78371935835328
4.691502302084913,5.309117926604639,-0.6540010498538371,10.56250766326592,1.906180378783288,-16.83642853523332,-11.20682520151005,-5.606450049773184,-12.69412676034471,83.18046487425281,-14.47409228018075,-24.7386940111262,4.599217405336174,-10.23065386361992,-3.320937464260849,-15.40848729989832,3.029022019559887,-21.09668571688662,-3.191549641384801,-3.958030308656168,6.039300595498929,22.09689531908348,12.87716539428714,-5.842322605242285,29.45493978218773,4.178457015338526,16.70561254252635,-3.124328700715798,5.510419140965514,-0.1892274973414116,-7.276871620794712,-9.676856363699704,2.470293095469535,19.90521933949423,-10.87232445981784,-11.98083770544311,-24.78499100742203,-13.41773108836789,-6.292504426266231,-3.894432783409048,-17.19016879166222,-6.251689853700936,40.8504926543784,-11.35698695542646,-2.961881256257393,7.544931852857267,5.894725194468609,21.96255093989709,4.060027797355973
16.73726205134067,-17.06964072722146,-8.233569273503592,18.97400206928825,-4.548244205606102,-2.499920510291223,-16.83692853044416,-2.973603070043437,-9.769665439898935,-14.47409228018075,60.55315547930203,16.00989319836551,-8.033507269298724,3.468043373885247,0.7049476799488971,4.212642829454611,-3.511390395054821,11.18146676516572,-2.382317445095318,-3.392107343325635,-4.091375284592338,-6.811684816691749,3.10814729689909,2.476545955777059,-1.867396512864707,0.03215934072860115,-3.092564489494404,-29.15674611656871,-20.1942325852624,7.776286414540011,-0.3052629810013257,-5.661055940822646,-4.052240927076294,-9.861039863314122,15.15747624123678,28.95605435515035,27.57916816792659,1.709309548663573,-23.97780508901745,7.670998882521336,20.35268683406142,-5.472458904023635,-9.09155023696683,9.118665304781338,-16.7570015594241,-7.79760498017133,-17.61350080924412,9.135344908029003,-31.52836543423401
-1.470861176531391,-25.90690686129681,3.834039794107008,29.27650816371312,-2.334367339238962,29.87772686973434,4.623868135095067,2.471243973633168,6.518363599315924,-24.73869401112621,16.00989319836551,92.81159452820553,-10.05682928078459,-5.954273589393241,-13.46791627653829,8.950464880213705,-1.939025995985989,25.52656556876378,22.16115740581255,14.37610890588004,-3.864593021826491,-8.176363804447883,-12.47525315566551,13.98018467134446,3.019011622259704,13.32946752002252,11.00562753758886,-13.2680724839058,-21.89553952701785,2.018651424771089,2.031852564947242,3.171022328231054,-6.55333754025156,-34.5012767407872,15.30786697282158,-0.2497642860770378,-0.7919546244807374,0.7873862216901957,11.60599594345361,-7.121896144180036,-2.764228157129903,35.06148083949137,-25.1788031368533,0.7417833943100389,5.641998070637881,6.799139108703804,-5.912858494098978,-32.28359957370282,-23.15971180242822
3.668523510717891,14.48961956176946,16.72277732005038,-9.476430093428149,-2.521942592854081,-8.115914829106517,-18.28719541399987,0.8812356848362854,0.268457943263329,4.599217405336175,-8.033507269298727,-10.05682928078459,48.69689985677247,24.9557828197394,6.150080228765765,13.41117545454078,0.943002814116725,2.920740753809012,-4.119862702035765,10.97809822138996,-10.20158977425669,8.426253429058052,3.793515688819846,-0.2971307449294099,18.41385621721778,5.820302125583293,1.334260263650724,23.30299260751722,-7.371088565594461,-7.710818604151126,15.75728317892194,-5.52879189154438,-10.24808750214647,6.005511045937364,-3.526012528328185,-7.884887398534447,12.82484018371831,3.674316857305325,7.250520930379428,-16.6456031145989,20.79819891209764,-9.802071447027851,10.04988599700235,16.41372452250832,10.37788430610297,5.278084261505123,1.841042953411709,12.18280493048996,17.47231528127194
-12.26824118225394,10.95905627213572,22.78177134813646,-4.422837336801425,5.506110807221533,-23.59344882733189,-23.11967054559875,8.238120103823539,13.1158676720487,-10.23065386361992,3.468043373885247,-5.95427358939324,24.9557828197394,82.03341212879354,-18.1532783818694,13.92961733077519,-4.973853498688054,7.406002874320069,-12.11510174299055,6.710192965263786,-22.14619006550759,9.976463297632117,-11.11010606326484,8.64099467304692,1.97831565198113,0.5181587966437523,3.859394278739327,10.31605486385143,-23.14579452217859,-16.39598336995807,9.393894152651466,-24.79199457599053,2.504570980833323,-1.740842272117211,-5.090197206123106,34.58661617158644,13.21273044820581,28.47668756757871,-15.40153921294294,-21.32465017064184,8.476246965345103,-7.735276245251009,8.798673635154932,2.287522165868623,-2.999688688286315,6.775776463871198,0.8408835901854527,-10.96007380090262,-12.36501901243346
18.80442808836691,5.405099945705296,14.8839922531361,27.96490701602418,-12.69834758182276,-11.53959347793189,-15.96064920947436,-2.610252914707129,2.779959516031066,-3.32093746426085,0.7049476799488971,-13.46791627653829,6.150080228765764,-18.1532783818694,97.25155688150606,0.1567115276739119,3.030682400335405,-2.434975559462119,14.05460792818748,9.938302299235062,6.101427059680546,3.655618591488493,3.112416105218871,-22.58977569308942,-4.101134363037026,-15.58114752196135,-10.47013244626553,22.58160567398038,15.90362788161559,21.90954761414176,-9.700616583305962,13.647441008012,16.05045258055222,10.52367168283374,-11.97455833291111,-10.9089332408731,-15.31675171977612,-19.14754751384369,5.729870158129632,3.241173187902063,18.71844445076252,-4.316829678103632,6.342012818389078,-5.857100771380882,7.278459730291396,2.262380768358441,-0.7649311658663063,-32.54301491588232,1.555367200526399
6.355218889659672,-20.39589957679768,2.71139152109424,-12.26541176523674,1.470310283264625,10.19033029936105,6.575717870579422,-0.4909268526747901,0.4126747362513513,-15.40848729989832,4.21264282945461,8.950464880213708,13.41117545454078,13.92961733077519,0.1567115276739092,85.90201371327328,2.982548261642894,-1.543787810706496,-17.25057669274299,-6.43997138564476,6.597862877644775,3.288090447624679,14.34482158729604,-16.60090514374123,14.47119964985483,7.990300101428128,-21.05610170990092,-35.94278093261992,-5.180800088011507,-12.64678625812111,16.3672869172759,-13.97093043707304,-12.85659575662889,-17.01717538179545,-34.37335828684983,32.22121490757998,-6.818518931583444,6.00211659564055,12.23534654832406,-17.1094866964403,26.09972165399876,7.003119993432775,-9.380592364396321,24.93471286017986,-2.008566742166742,-2.866206220508202,-2.284523090738129,4.564224595904879,6.052439426001157
-2.354258936297259,-9.017364792428779,7.01134042605363,5.278569207548664,-8.185013640767604,-9.504695555648505,18.19338964512215,-4.187310697871063,-3.574419947996887,3.029022019559887,-3.511390395054821,-1.939025995985988,0.943002814116726,-4.973853498688054,3.030682400335402,2.982548261642895,55.4191891709533,6.547904205706069,-1.711615083916048,1.992953464689291,-1.765571418106305,-1.744622370176577,-4.75295632537165,1.542282479842284,-6.003415916858981,0.7939474134527004,9.556865229556633,-3.02627326774667,3.631355255461806,-7.543201917983702,13.12129334482263,11.61661506583531,2.848451097235463,-1.294160800487474,2.949428871941992,8.592572211812691,0.1629144210559858,-2.315601553025897,3.335445452102766,14.4055634629069,16.98464582184979,9.665719960826111,16.78718918593541,4.829168759148971,-6.129007758524923,-17.74683055100498,-17.15414775728314,-6.180719872873328,-5.732001069188246
31.05706577266979,-2.424970495321972,20.74600085832749,16.9187836344251,22.17575986842809,6.128782059319465,-9.842692609119691,13.97431050877156,26.00655694847616,-21.09668571688662,11.18146676516571,25.52656556876378,2.920740753809012,7.406002874320071,-2.43497555946212,-1.543787810706496,6.547904205706066,90.56382598804828,18.05451375603923,5.451501624122055,24.05683514952363,-18.13427696932709,-6.088500805337311,12.26723791831425,0.7712587849130118,-18.88860486504256,14.10212766446625,-3.802927559508717,-14.99519677547031,9.093137165657026,-3.110147353793316,31.78557826407671,11.64815581494208,-14.39241126895219,-6.303037987679238,10.12460358757677,27.35030627602175,7.296404942825981,6.204436054328101,-0.9002476697881142,3.98116197888867,18.39251752035834,-24.11204625563417,0.8609760163371789,14.07262341912776,-13.70362896446965,-15.58582532044127,-21.83515279159798,2.954062503594463
-4.226705797088465,-17.62724128454355,7.597319780429435,22.91093003443353,-6.103979184743794,15.94127399932639,-24.74463000490567,8.32844821901757,11.51866397673454,-3.191549641384802,-2.382317445095318,22.16115740581254,-4.119862702035765,-12.11510174299054,14.05460792818748,-17.25057669274299,-1.711615083916048,18.05451375603923,68.68229743951473,-0.1963482741615553,-2.210180616527894,-17.27817687745399,-8.999228883445351,19.19698335413984,-9.678792079462713,-4.679464051635799,13.38041709112273,11.3701080979997,-10.69677231758921,32.26479786904834,-2.294731480369135,7.706008423183641,-5.777531642726455,-4.495216219233195,9.394503590011507,-18.8123164291163,-3.104837221146483,6.980351697335837,15.88628046364777,10.53118139279398,2.023976190405771,18.21395896405743,6.027714528352607,-10.33294272981849,-6.781947551008768,3.440196218897086,4.225615185064538,-22.0626529502281,-11.2693132628887
-26.93452288815841,11.16748211675932,24.08100111524926,9.306835932313939,-17.31390917861676,9.415974561882063,-21.53864705577471,16.93612331623507,28.72413474516219,-3.958030308656169,-3.392107343325633,14.37610890588004,10.97809822138996,6.710192965263786,9.938302299235064,-6.439971385644761,1.992953464689291,5.451501624122052,-0.1963482741615547,87.14080857711951,-15.0383256323454,-6.335987087415352,1.960031241260269,12.42853547332613,-7.136738065693518,-4.853803477756464,25.71604402374749,42.23901978645069,-6.628555570429562,-24.71256058606977,18.26404201851248,22.91029176587069,1.082505242919408,-16.08143085678051,-3.457208026989461,2.968961433570577,-1.309031598236713,-17.45218058238463,-4.81751359564379,13.87672097454952,-11.77975322029052,-9.602617431379354,17.4682549584291,-8.655419090978212,11.68437297670924,-7.981782352794868,-7.029669048585005,-8.897445513591684,19.29030276638484
23.80461172027633,-8.594089645111939,0.9209205890567654,-2.368922758744537,8.536345745245839,-3.050778718063452,31.69449791102,-4.085682519531228,12.32458774329185,6.039300595498929,-4.09137528459234,-3.864593021826493,-10.20158977425669,-22.14619006550759,6.101427059680546,6.597862877644774,-1.765571418106306,24.05683514952363,-2.210180616527893,-15.03832563234539,85.80179292104766,10.61755803150325,-26.45665692300381,-15.26078962039285,-3.739197350673576,-19.60295381013101,-1.700869626694288,-30.14498237322088,1.887300992191445,16.06800001287321,-10.81928716936155,9.779088963293832,8.26868094914599,8.080657682066803,6.135781228253761,-13.06544393786865,-0.6121273837548189,-20.46299437395088,0.3230932118456363,-11.25688503255802,2.069981824536687,20.5548400937094,-28.31595430975242,0.6172271436089127,12.31880856186866,17.65321946912144,-21.76945472723864,-4.441733260616049,12.56587041491333
9.777605975485647,-2.341724577918907,-2.130222102426232,-18.17394805330812,20.27591512887493,-22.90556583247642,-7.416590024078986,1.913664988324177,-30.60254729209407,22.09689531908349,-6.811684816691748,-8.176363804447883,8.426253429058052,9.976463297632117,3.655618591488492,3.28809044762468,-1.744622370176577,-18.13427696932709,-17.27817687745399,-6.335987087415353,10.61755803150325,74.92095588680829,-10.3976419571593,5.551898783252609,18.36119842516125,-11.06569126805035,-17.24104760925136,9.273167900395176,5.094190725812304,-9.460924150429769,-4.42059878813519,-18.7641737355917,9.229092160653234,22.1925367932971,5.588053125692895,11.70301747442955,-1.956815887455711,7.372378587086172,-21.79918936062824,-15.11434661313491,17.73636616795304,-2.142414741540938,-5.014535486264423,-4.617833462813979,-5.134422224770339,0.4084641289214355,23.58431071676242,-3.386823836782747,-4.554908442190577
-7.766349469032073,21.48378084600053,-9.717971438313244,13.19827902298215,9.852331671571816,14.51925051717806,26.35466481769333,7.742090717505647,-12.66404069938675,12.87716539428713,3.10814729689909,-12.47525315566551,3.793515688819845,-11.11010606326484,3.112416105218871,14.34482158729604,-4.752956325371649,-6.08850080533731,-8.999228883445349,1.960031241260265,-26.45665692300381,-10.3976419571593,99.01817603655029,-11.34137597280332,51.80708392804188,-0.7355007886815763,-26.44347693788374,10.69778471698542,11.73117525575921,-18.85625341499397,-13.67399714532256,5.510263683036988,-6.594167850041061,-3.901383075646685,-13.13004505529328,21.00166441645394,7.504025770878105,-9.325708929593828,31.85926605621302,-12.36142155969813,17.51474684768678,-32.71682796779883,-7.034268183396247,13.91285566488576,-11.40491957936759,-4.610157021049089,13.31571997318624,0.9992740749291088,17.81908247081955
-25.04573441232857,-6.503883803623178,0.3129562720559509,-18.91794098469246,-5.063273057095055,-2.049155134829697,-27.49557049474321,-0.5303879198379881,-6.53445742665081,-5.842322605242286,2.476545955777057,13.98018467134446,-0.2971307449294101,8.640994673046922,-22.58977569308942,-16.60090514374124,1.542282479842283,12.26723791831425,19.19698335413984,12.42853547332613,-15.26078962039285,5.551898783252608,-11.34137597280333,75.19884519091153,-2.396057908281301,-1.613014486158189,16.60214719768075,12.79640948463086,-9.437108192936323,9.593695391067694,5.131876053362607,-3.275525403048056,-7.317276831016901,-5.288147213292131,12.68978102014787,-3.579230353242187,17.79743247975411,4.243735497055527,-16.67086697857809,14.18608439771347,-13.09404110467712,11.24155858332132,12.34407380170198,-4.505357394986008,8.228889334031436,-14.48565534571292,8.430952668669384,6.553632664395977,3.213733383755814
21.74495360631394,1.275097933300083,5.703193196429378,-6.108974466032569,20.54891049582202,-0.207050945541444,21.43285202322434,-1.243673914933215,-14.48664335146554,29.45493978218773,-1.867396512864708,3.019011622259707,18.41385621721778,1.978315651981134,-4.101134363037026,14.47119964985483,-6.003415916858985,0.7712587849130107,-9.678792079462713,-7.136738065693518,-3.739197350673578,18.36119842516125,51.80708392804188,-2.396057908281299,86.76711378265283,19.80519901874759,-8.082598595821592,1.612700244267314,-9.310601986402633,-8.33008469369882,-7.468166600056883,0.9108052141862039,2.20567628735668,12.62277088144555,-14.35548498830238,-3.459229803825086,-6.482542264820514,0.2495205888888134,9.689544378302706,-15.83422020105194,17.84300016937001,-11.65186660471596,-1.430727911264185,12.06391528256365,-5.917844343002093,1.758372888346567,12.94497474092516,14.70321554694832,8.242226862975187
11.13636703079098,-18.06278657438181,-11.81550756351828,-7.965215523915116,-6.078760654715011,5.806615852112273,0.2410583670541702,-11.6702794863092,-11.31371246402385,4.178457015338524,0.03215934072860065,13.32946752002252,5.820302125583293,0.5181587966437506,-15.58114752196135,7.990300101428127,0.7939474134527026,-18.88860486504255,-4.679464051635802,-4.853803477756464,-19.60295381013101,-11.06569126805035,-0.7355007886815749,-1.61301448615819,19.80519901874759,58.24178855218442,-2.434506392630816,-3.249861130097965,-10.58154762820613,7.56762873554745,2.565458537923916,0.5214711807617568,-12.39734185242216,-8.41635443911054,-14.86584050597759,-6.752002930511373,-8.648472343074523,-6.314660339778256,-7.762786409710519,20.82437680878409,2.988076962035274,-8.928132341746634,21.41559645291533,-6.749176843031359,2.803536463289445,4.76490616578296,-11.40960254140573,9.255609415053254,-13.69554366530893
-14.49485784760784,9.913839663006362,15.26336207887164,18.3146743176086,-11.36942682974946,-13.33503232934865,-19.75782849565621,28.98530513999524,24.25169587471467,16.70561254252635,-3.092564489494403,11.00562753758886,1.334260263650722,3.859394278739326,-10.47013244626553,-21.05610170990092,9.556865229556632,14.10212766446626,13.38041709112273,25.7160440237475,-1.700869626694287,-17.24104760925136,-26.44347693788374,16.60214719768075,-8.082598595821596,-2.434506392630817,104.601465173562,-6.446757186794942,-7.101234260544847,-0.933452395056098,-4.036959513068196,9.287391727292407,4.3641276973477,16.12822192659926,3.28539996888425,-17.9925142472438,-1.038451793012625,-23.08064166054904,27.86159918517271,32.1258046107283,-24.18117264642703,4.676478098596241,13.72126555782801,-1.234340659564944,2.017095573289168,-1.374610331840734,-42.30199134216707,0.4420260886447818,2.165913629012543
-10.57490197127727,10.15820691497809,0.3673074233726892,3.429562045640896,-3.4158702111879,-0.7509176099913227,-14.99740588189055,27.51223635161982,29.49135561675107,-3.124328700715801,-29.15674611656871,-13.2680724839058,23.30299260751722,10.31605486385142,22.58160567398038,-35.94278093261992,-3.026273267746669,-3.802927559508715,11.3701080979997,42.2390197864507,-30.14498237322088,9.273167900395181,10.69778471698542,12.79640948463086,1.612700244267315,-3.249861130097963,-6.446757186794942,138.5018253784285,4.309600238567409,-18.40148508658827,1.605464753266379,10.08946360515344,14.03251102425118,11.07949585840032,28.63969075715528,-36.89201390359609,12.11798038847879,-4.227745893670033,4.112162280573176,5.425629924782766,-0.8930829378580445,-28.50408216315874,11.50599522846412,-16.28730991117474,-2.713790125196086,0.9276338702072552,11.99602727064094,-1.723550396840819,10.4958644528093
4.300092877229035,12.54570831913271,-0.7553052516444551,-27.11744719785096,2.143390869630809,-2.702077809312061,18.55935147986217,-1.956532342099106,-6.289608718238257,5.510419140965512,-20.1942325852624,-21.89553952701785,-7.371088565594463,-23.14579452217859,15.90362788161559,-5.180800088011506,3.631355255461806,-14.9951967754703,-10.69677231758921,-6.628555570429563,1.887300992191446,5.094190725812306,11.7311752557592,-9.437108192936323,-9.310601986402634,-10.58154762820613,-7.101234260544846,4.309600238567413,54.75650230332497,-12.81975565807753,10.23275512533581,3.963351013309568,1.130789007229097,2.662704016903934,-4.075607265178332,-9.22385628344373,-11.04259263242841,-6.381876406863574,0.8930674461439786,-4.994565636279112,-11.90426362255054,-11.93347211290198,3.722797546085863,3.252930501301906,13.12767701975082,-12.3568339964224,2.293019556637554,-6.344436654110475,5.343064658824199
32.82536647165794,-9.210144990204427,-11.38550300691057,17.49865231334667,7.90964451020029,-1.718659563557897,-7.451985975145235,-4.302541133683251,-7.39547320138001,-0.1892274973414118,7.776286414540011,2.018651424771087,-7.710818604151127,-16.39598336995807,21.90954761414176,-12.64678625812111,-7.543201917983702,9.09313716565703,32.26479786904834,-24.71256058606978,16.06800001287321,-9.460924150429769,-18.85625341499397,9.593695391067694,-8.33008469369882,7.56762873554745,-0.9334523950560969,-18.40148508658828,-12.81975565807753,92.47890083420693,-18.47803800492587,-7.92545095532538,-7.196050342863347,5.112372580954551,-4.108271749611156,-0.6086787747038858,-20.59529614320896,-0.9596158617672679,4.784306466584688,41.57959783882512,13.24494249627683,7.272043720312827,4.183186105958048,-21.6723498787957,8.235298844599837,-0.9012236800273203,-2.0698663787723,-3.623571846768673,-3.484944432736762
-0.7189633084058751,-10.55207227850819,6.862726063097559,-27.95886955333907,-9.251919458329043,13.16101233480342,-17.67491047037367,-7.728708833957463,5.370395660397874,-7.276871620794711,-0.3052629810013254,2.031852564947242,15.75728317892194,9.393894152651466,-9.700616583305962,16.36728691727589,13.12129334482263,-3.110147353793317,-2.294731480369135,18.26404201851248,-10.81928716936156,-4.42059878813519,-13.67399714532256,5.13187605336261,-7.468166600056878,2.565458537923917,-4.036959513068195,1.605464753266377,10.23275512533581,-18.47803800492587,66.69835950033981,3.518020695936149,-10.70233058571327,-4.958553639191154,2.410865941117278,-3.500072069619126,-8.955034706988837,17.66007525037642,-29.65736735026924,-10.28002190612754,-5.445048115563877,-4.070144991172207,21.80640784255595,20.21874834428602,-2.750896394594399,-5.984471591938392,-4.450626426975382,26.89157915897385,5.754119537311768
-2.394499621299703,-10.59824787639986,6.016525837388983,18.3601771945167,5.970668485120923,15.97881991720338,-7.177801306374537,-1.477759213848193,12.13568002648895,-9.676856363699704,-5.661055940822645,3.171022328231055,-5.528791891544381,-24.79199457599053,13.647441008012,-13.97093043707305,11.61661506583531,31.78557826407671,7.706008423183643,22.91029176587069,9.779088963293832,-18.7641737355917,5.51026368303699,-3.275525403048056,0.9108052141862039,0.5214711807617549,9.287391727292409,10.08946360515344,3.963351013309567,-7.925450955325382,3.518020695936151,65.93589887438732,6.619890507725352,-11.8278080127678,-9.671073811845211,-25.62157620638443,0.8560087458167215,-25.33007046819898,2.197877783495725,15.6442835487438,-7.861799860050676,4.785133144991388,-4.625805373282271,-4.361568112126732,10.18445038210181,-10.21063116829692,-9.781174074544051,-16.17385481739846,9.335040333940125
7.594149871006035,2.601728176066181,-4.214076690966737,6.554874077063942,-7.996906309352185,-13.38739170150628,8.523535974948146,16.67910654081879,6.155696287854885,2.470293095469536,-4.052240927076296,-6.55333754025156,-10.24808750214646,2.50457098083332,16.05045258055222,-12.85659575662888,2.848451097235462,11.64815581494208,-5.777531642726455,1.08250524291941,8.268680949145994,9.229092160653234,-6.594167850041063,-7.3172768310169,2.205676287356681,-12.39734185242216,4.364127697347699,14.03251102425118,1.130789007229098,-7.196050342863347,-10.70233058571327,6.619890507725352,60.34859825614448,3.631410829107656,-1.798798260397606,5.098869254040997,-3.104029531541008,0.1578571697168052,-9.557305145406431,-7.591975280006564,1.93024684375392,-3.662919325313057,-4.289701397128241,-3.080773506613431,0.7083441294338437,9.056358806158576,12.30161129533821,-3.912621420989592,-6.680631034948961
7.932541650928929,15.92184934782009,-1.536953266619848,-10.96734081696201,5.087757658447509,-13.78827813332173,5.989007654628715,13.59608248831741,-3.563319517722887,19.90521933949423,-9.861039863314122,-34.5012767407872,6.005511045937361,-1.74084227211721,10.52367168283373,-17.01717538179545,-1.294160800487475,-14.3924112689522,-4.495216219233195,-16.08143085678051,8.080657682066802,22.19253679329709,-3.901383075646685,-5.288147213292131,12.62277088144555,-8.41635443911054,16.12822192659926,11.07949585840032,2.662704016903935,5.112372580954548,-4.958553639191153,-11.8278080127678,3.631410829107654,70.18744649708731,0.8986538306706795,-12.24113197452138,1.962559969367761,4.646884896418238,10.37982376136524,7.774765654422463,-0.6498787183343719,-20.32451400353085,-0.7681730831546155,-7.347264772306886,-14.92599894229564,18.4084989013758,2.262634050188868,12.13391857049579,24.32119188486801
-14.26014460443553,8.228335698663729,-12.18447771716598,-0.5191010927327399,8.190514466169503,-7.74564694683636,3.571863245847492,3.943038532241289,-7.800804130326997,-10.87232445981784,15.15747624123678,15.30786697282158,-3.526012528328184,-5.090197206123109,-11.97455833291111,-34.37335828684983,2.949428871941995,-6.303037987679234,9.394503590011508,-3.457208026989461,6.135781228253764,5.588053125692894,-13.13004505529328,12.68978102014787,-14.35548498830238,-14.86584050597759,3.285399968884253,28.63969075715529,-4.075607265178334,-4.108271749611158,2.410865941117279,-9.671073811845211,-1.798798260397605,0.8986538306706784,95.6967873631742,-29.09087055765501,8.414292740895677,-0.2957778594626746,-2.815524926966018,-11.17124578847927,-16.62238064868041,0.1586608489220873,6.94704832073525,7.537647062441264,-22.98458347826659,1.883773752868397,-11.58752430853597,13.20502345487714,-15.68645717799082
6.98368180826928,7.928324294470386,8.794399483039726,2.241731689342607,11.67884041098541,-3.432920273437291,9.891319949356166,8.443980403836123,-15.79393855543147,-11.98083770544311,28.95605435515034,-0.249764286077038,-7.884887398534447,34.58661617158643,-10.9089332408731,32.22121490757998,8.592572211812691,10.12460358757677,-18.8123164291163,2.968961433570578,-13.06544393786865,11.70301747442956,21.00166441645394,-3.579230353242185,-3.459229803825086,-6.752002930511372,-17.99251424724379,-36.89201390359609,-9.223856283443729,-0.6086787747038853,-3.500072069619126,-25.62157620638443,5.098869254040995,-12.24113197452138,-29.09087055765501,100.8581877047735,9.569074995985694,23.75750727812022,-11.7662807433831,-2.141461821078293,35.24394017142583,-19.55575877357426,-8.386862266250459,-3.423979796195518,-11.80572809084407,-10.89902080113364,-0.3296414841147804,-12.90025975452892,-14.20480299215443
-5.164633943891452,-13.19891510694046,-16.28499115548501,-13.88457325829371,-35.95352429455774,-19.1175582997754,-1.314488782608,6.405427368490537,6.353210288421738,-24.78499100742203,27.57916816792658,-0.7919546244807374,12.82484018371831,13.21273044820581,-15.31675171977612,-6.818518931583446,0.1629144210559868,27.35030627602175,-3.104837221146481,-1.309031598236712,-0.6121273837548187,-1.956815887455711,7.504025770878104,17.79743247975411,-6.482542264820512,-8.648472343074525,-1.038451793012625,12.11798038847879,-11.04259263242841,-20.59529614320895,-8.955034706988837,0.856008745816721,-3.104029531541007,1.962559969367761,8.414292740895677,9.569074995985694,98.30493226632615,-10.56868098131067,3.473202110206843,6.287196195373468,15.39522062060958,-5.190539914320667,-27.45898304976413,10.95465304364713,-9.359431843686799,-10.35164393479805,0.1466925099054479,-2.377813986242322,-25.87811717053138
13.0198729579669,8.31028086509659,19.14921486550282,-20.10189674300609,34.67912536058419,4.710684354511146,-2.477249431523615,-0.3307171493568912,2.264163662406409,-13.41773108836789,1.70930954866357,0.7873862216901939,3.674316857305325,28.47668756757871,-19.14754751384369,6.002116595640549,-2.315601553025895,7.296404942825979,6.980351697335839,-17.45218058238463,-20.46299437395088,7.372378587086172,-9.325708929593828,4.243735497055526,0.2495205888888131,-6.314660339778255,-23.08064166054904,-4.227745893670034,-6.381876406863572,-0.9596158617672705,17.66007525037642,-25.33007046819898,0.1578571697168062,4.64688489641824,-0.2957778594626749,23.75750727812022,-10.56868098131068,75.47580056258282,-15.61876247098126,-24.9086937324014,7.389578116443391,-14.89579580054603,-1.694155770722876,1.540646673617273,-6.187594025062281,4.432214263763514,16.69805803784159,9.40069784731056,6.584032009679847
-24.50070541202538,8.349877307561888,-0.7182922043994034,18.1782197490037,-5.502533875379239,7.140031710353767,32.98911967553349,28.90894047604386,11.07091577479531,-6.292504426266232,-23.97780508901745,11.60599594345361,7.250520930379428,-15.40153921294294,5.729870158129629,12.23534654832406,3.335445452102765,6.204436054328101,15.88628046364777,-4.817513595643792,0.3230932118456341,-21.79918936062824,31.85926605621302,-16.67086697857809,9.689544378302708,-7.762786409710519,27.86159918517271,4.112162280573176,0.8930674461439787,4.784306466584689,-29.65736735026924,2.197877783495724,-9.557305145406431,10.37982376136524,-2.815524926966022,-11.7662807433831,3.473202110206842,-15.61876247098126,100.8080729088666,4.234455958272313,-2.839109479526802,6.124400508105135,-23.53581541011163,3.155152513460004,-9.137110481158754,12.56616524941805,-3.532654919195526,-25.84083084995455,24.36705037111575
11.25051876036859,-20.07837376182352,-16.10852929375562,11.83636164978295,-9.618996986654967,-6.566380022612903,-8.497892544849138,10.1368214271476,6.86027810383125,-3.894432783409051,7.670998882521336,-7.121896144180036,-16.6456031145989,-21.32465017064184,3.241173187902065,-17.1094866964403,14.4055634629069,-0.9002476697881138,10.53118139279398,13.87672097454952,-11.25688503255802,-15.11434661313491,-12.36142155969813,14.18608439771348,-15.83422020105194,20.82437680878409,32.1258046107283,5.42562992478276,-4.994565636279111,41.57959783882512,-10.28002190612754,15.6442835487438,-7.591975280006566,7.774765654422463,-11.17124578847927,-2.141461821078293,6.287196195373468,-24.9086937324014,4.234455958272312,93.21303410535423,-10.15665102438216,-7.817286563936966,14.49366790851259,-31.26191922758341,-13.24608860495958,-26.97808538584673,-11.40795594758157,4.169289700473763,-18.80413375484004
24.84738490336717,3.387623772588834,1.484197050923007,14.93179310352368,-3.560817116221938,-4.087329349866488,20.95387003437009,3.166938824917922,-23.05059449375537,-17.19016879166221,20.35268683406141,-2.7642281571299,20.79819891209764,8.476246965345103,18.71844445076252,26.09972165399875,16.98464582184979,3.981161978888673,2.02397619040577,-11.77975322029052,2.069981824536691,17.73636616795304,17.51474684768678,-13.09404110467712,17.84300016937001,2.988076962035275,-24.18117264642703,-0.893082937858043,-11.90426362255054,13.24494249627683,-5.445048115563877,-7.861799860050675,1.93024684375392,-0.6498787183343727,-16.62238064868041,35.24394017142583,15.39522062060957,7.389578116443391,-2.839109479526803,-10.15665102438216,95.61667600242809,-6.095015221734259,-18.89138260284846,24.42031142693178,4.392102684126286,-8.371213041343365,-7.835689577985595,-15.54184233375224,-18.97297698271097
-8.831008632709301,-9.543200758441449,9.553796513189706,25.55254075522839,-22.703435019198,-21.11096158110536,0.9030910815858789,-6.29838692395499,0.147515251831562,-6.251689853700939,-5.472458904023636,35.06148083949137,-9.802071447027849,-7.735276245251009,-4.316829678103634,7.003119993432771,9.665719960826108,18.39251752035834,18.21395896405743,-9.602617431379354,20.5548400937094,-2.142414741540941,-32.71682796779883,11.24155858332131,-11.65186660471596,-8.928132341746634,4.676478098596239,-28.50408216315874,-11.93347211290198,7.272043720312827,-4.070144991172207,4.785133144991388,-3.662919325313058,-20.32451400353085,0.1586608489220863,-19.55575877357426,-5.190539914320664,-14.89579580054603,6.124400508105135,-7.817286563936965,-6.095015221734259,99.95352444204474,-15.90487501171676,12.05164910287146,10.43977099259193,-19.45536887740412,18.82290128882097,-17.39763829990841,-24.23357181450114
-22.58888472601289,1.106365388133434,0.6562273313813356,-8.328139367406392,-15.76653839667528,-14.01472891780645,-32.16136289257194,-10.95723261713291,-11.24503678400136,40.85049265437841,-9.091550236966828,-25.17880313685329,10.04988599700235,8.798673635154932,6.342012818389081,-9.380592364396321,16.78718918593541,-24.11204625563417,6.027714528352606,17.4682549584291,-28.31595430975242,-5.014535486264421,-7.03426818339625,12.34407380170198,-1.430727911264185,21.41559645291533,13.72126555782801,11.50599522846412,3.722797546085862,4.18318610595805,21.80640784255595,-4.625805373282271,-4.289701397128242,-0.7681730831546162,6.947048320735252,-8.386862266250462,-27.45898304976413,-1.694155770722878,-23.53581541011163,14.49366790851259,-18.89138260284846,-15.90487501171676,90.910002749166,-5.042435099504398,-3.384662644274457,4.516167516462177,-9.802375719350195,17.000209144229,-11.96440127907956
-8.061894510803015,8.644095579761276,8.416304937016205,-11.89272533116644,-14.91820138633888,0.9667196135126295,7.175735616139564,-5.860676069479826,-8.620604853069425,-11.35698695542646,9.118665304781338,0.7417833943100377,16.41372452250832,2.287522165868622,-5.85710077138088,24.93471286017986,4.82916875914897,0.8609760163371788,-10.33294272981849,-8.655419090978212,0.617227143608912,-4.61783346281398,13.91285566488576,-4.505357394986008,12.06391528256365,-6.74917684303136,-1.234340659564943,-16.28730991117474,3.252930501301907,-21.6723498787957,20.21874834428602,-4.361568112126728,-3.080773506613432,-7.347264772306886,7.537647062441263,-3.423979796195518,10.95465304364713,1.540646673617273,3.155152513460004,-31.26191922758341,24.42031142693178,12.05164910287146,-5.042435099504397,58.19664481745811,1.912104764488063,-7.494805202669539,-11.64143255632958,14.92114428241465,-0.6114525342690396
13.15133448214162,9.082594988839228,15.82228046119209,-13.93066121422288,7.191098826675592,-3.52837723116452,-4.180148022849638,-10.80645861200849,5.206612050430206,-2.961881256257394,-16.7570015594241,5.641998070637884,10.37788430610297,-2.999688688286311,7.278459730291398,-2.008566742166741,-6.129007758524922,14.07262341912776,-6.781947551008768,11.68437297670925,12.31880856186866,-5.134422224770339,-11.40491957936759,8.228889334031436,-5.91784434300209,2.803536463289445,2.017095573289169,-2.713790125196087,13.12767701975082,8.235298844599836,-2.750896394594401,10.18445038210181,0.7083441294338431,-14.92599894229564,-22.98458347826659,-11.80572809084407,-9.359431843686799,-6.187594025062279,-9.137110481158755,-13.24608860495958,4.392102684126285,10.43977099259193,-3.384662644274457,1.912104764488061,84.71981240867973,0.6447391307906502,-10.965519859832,-5.852035471334107,35.12247330822228
-21.10169176301473,0.1342301508931984,-12.57247753971382,16.37159977515193,-0.3247823398479849,21.80907310571937,8.444662181816192,4.479120838243508,5.784430930462212,7.544931852857268,-7.797604980171331,6.799139108703804,5.278084261505122,6.775776463871197,2.262380768358444,-2.8662062205082,-17.74683055100498,-13.70362896446965,3.440196218897085,-7.981782352794867,17.65321946912144,0.4084641289214373,-4.61015702104909,-14.48565534571292,1.758372888346562,4.764906165782962,-1.374610331840735,0.9276338702072529,-12.3568339964224,-0.9012236800273165,-5.984471591938391,-10.21063116829692,9.056358806158578,18.4084989013758,1.883773752868395,-10.89902080113364,-10.35164393479805,4.432214263763512,12.56616524941805,-26.97808538584673,-8.371213041343367,-19.45536887740412,4.516167516462177,-7.494805202669539,0.6447391307906474,88.42108022607539,-11.25370444628776,-11.43582312514247,22.75286118641446
-8.685467414669361,4.398867479875619,-2.656484787411584,-12.15265068479232,-1.826198139818768,3.4538807219742,-3.627375237279532,-4.340260771728641,-17.92039590102664,5.894725194468609,-17.61350080924412,-5.912858494098978,1.841042953411709,0.8408835901854507,-0.7649311658663087,-2.284523090738128,-17.15414775728314,-15.58582532044127,4.225615185064538,-7.029669048585007,-21.76945472723864,23.58431071676242,13.31571997318624,8.430952668669386,12.94497474092516,-11.40960254140573,-42.30199134216706,11.99602727064094,2.293019556637557,-2.069866378772297,-4.45062642697538,-9.781174074544049,12.30161129533821,2.262634050188868,-11.58752430853597,-0.3296414841147785,0.1466925099054497,16.69805803784159,-3.532654919195525,-11.40795594758157,-7.835689577985595,18.82290128882096,-9.802375719350199,-11.64143255632958,-10.965519859832,-11.25370444628776,82.66743119489237,-0.8916233077147555,-3.066688110293147
13.19098356288483,9.017802344062504,-21.56971846618218,-34.89793024820255,1.706003547636831,-12.86102913436218,-14.7491480761619,-7.426579784379954,-0.6871933040518029,21.96255093989709,9.135344908029003,-32.28359957370282,12.18280493048996,-10.96007380090262,-32.54301491588232,4.564224595904879,-6.180719872873328,-21.83515279159798,-22.0626529502281,-8.897445513591682,-4.441733260616049,-3.386823836782745,0.999274074929109,6.553632664395978,14.70321554694832,9.255609415053252,0.4420260886447818,-1.723550396840819,-6.344436654110475,-3.623571846768677,26.89157915897386,-16.17385481739846,-3.912621420989593,12.13391857049579,13.20502345487714,-12.90025975452892,-2.377813986242325,9.400697847310559,-25.84083084995454,4.169289700473766,-15.54184233375224,-17.39763829990841,17.000209144229,14.92114428241465,-5.852035471334107,-11.43582312514247,-0.8916233077147551,99.78678979021076,27.62400182643749
-2.974850872884312,37.65065662481106,18.81161111825785,-19.55725819829981,31.94757528270822,24.51874172684909,-3.452382227211319,4.410825193271953,22.78371935835328,4.060027797355974,-31.52836543423401,-23.15971180242823,17.47231528127194,-12.36501901243346,1.5553672005264,6.052439426001157,-5.732001069188247,2.954062503594466,-11.2693132628887,19.29030276638484,12.56587041491333,-4.55490844219058,17.81908247081956,3.213733383755816,8.242226862975183,-13.69554366530894,2.165913629012545,10.49586445280929,5.343064658824203,-3.484944432736763,5.754119537311765,9.335040333940125,-6.680631034948957,24.32119188486801,-15.68645717799082,-14.20480299215444,-25.87811717053139,6.584032009679844,24.36705037111575,-18.80413375484004,-18.97297698271098,-24.23357181450115,-11.96440127907956,-0.6114525342690396,35.12247330822228,22.75286118641446,-3.066688110293147,27.62400182643749,112.700701932639
